hw5/lab3/log/waveform_2.vcd
$date
	Sat Dec 23 13:12:44 2023
$end
$version
	Icarus Verilog
$end
$timescale
	1s
$end
$scope module TestBench $end
$var reg 1 ! Clk $end
$var reg 1 " Reset $end
$var integer 32 # counter [31:0] $end
$var integer 32 $ i [31:0] $end
$var integer 32 % outfile [31:0] $end
$scope module CPU $end
$var wire 1 ! clk_i $end
$var wire 1 " rst_i $end
$var wire 1 & zero $end
$var wire 1 ' stall $end
$var wire 1 ( predict_o $end
$var wire 1 ) predict_PCWrite_o $end
$var wire 32 * pc_o [31:0] $end
$var wire 32 + pc_i [31:0] $end
$var wire 32 , instr_o [31:0] $end
$var wire 32 - immed [31:0] $end
$var wire 2 . forward_B [1:0] $end
$var wire 2 / forward_A [1:0] $end
$var wire 1 0 flush_IFID $end
$var wire 1 1 flush_IDEX $end
$var wire 32 2 WBData [31:0] $end
$var wire 1 3 RegWrite $end
$var wire 32 4 ReadData_o [31:0] $end
$var wire 32 5 RS2data [31:0] $end
$var wire 32 6 RS1data [31:0] $end
$var wire 1 7 PCWrite $end
$var wire 1 8 NoOp $end
$var wire 1 9 MemtoReg $end
$var wire 1 : MemWrite $end
$var wire 1 ; MemRead $end
$var wire 32 < MUX_PC2_Src2 [31:0] $end
$var wire 32 = MUX_PC2_Src1 [31:0] $end
$var wire 32 > MUX_PC1_Src2 [31:0] $end
$var wire 32 ? MUX_PC1_Src1 [31:0] $end
$var wire 32 @ MUXC_Src1 [31:0] $end
$var wire 1 A MEMWB_RegWrite $end
$var wire 32 B MEMWB_ReadData [31:0] $end
$var wire 5 C MEMWB_RDaddr [4:0] $end
$var wire 1 D MEMWB_MemtoReg $end
$var wire 32 E MEMWB_ALUout [31:0] $end
$var wire 32 F IFID_pc_o [31:0] $end
$var wire 32 G IFID_instr [31:0] $end
$var wire 32 H IDEX_pc_o [31:0] $end
$var wire 32 I IDEX_immed [31:0] $end
$var wire 10 J IDEX_fun10 [9:0] $end
$var wire 1 K IDEX_RegWrite $end
$var wire 32 L IDEX_RS2data [31:0] $end
$var wire 5 M IDEX_RS2addr [4:0] $end
$var wire 32 N IDEX_RS1data [31:0] $end
$var wire 5 O IDEX_RS1addr [4:0] $end
$var wire 5 P IDEX_RDaddr [4:0] $end
$var wire 1 Q IDEX_MemtoReg $end
$var wire 1 R IDEX_MemWrite $end
$var wire 1 S IDEX_MemRead $end
$var wire 1 T IDEX_Branch $end
$var wire 1 U IDEX_ALUSrc $end
$var wire 2 V IDEX_ALUOp [1:0] $end
$var wire 32 W EXMEM_WriteData [31:0] $end
$var wire 1 X EXMEM_RegWrite $end
$var wire 5 Y EXMEM_RDaddr [4:0] $end
$var wire 1 Z EXMEM_MemtoReg $end
$var wire 1 [ EXMEM_MemWrite $end
$var wire 1 \ EXMEM_MemRead $end
$var wire 32 ] EXMEM_ALUout [31:0] $end
$var wire 1 ^ Branch $end
$var wire 32 _ ALUout [31:0] $end
$var wire 32 ` ALUSrc2 [31:0] $end
$var wire 32 a ALUSrc1 [31:0] $end
$var wire 1 b ALUSrc $end
$var wire 2 c ALUOp [1:0] $end
$var wire 3 d ALUCtl [2:0] $end
$var wire 32 e ADD3_Src2 [31:0] $end
$scope module ALU $end
$var wire 32 f b [31:0] $end
$var wire 32 g a [31:0] $end
$var wire 3 h ALUCtl [2:0] $end
$var reg 32 i data_o [31:0] $end
$var reg 1 & zero $end
$upscope $end
$scope module ALU_Control $end
$var wire 10 j I [9:0] $end
$var wire 2 k ALUOp [1:0] $end
$var reg 3 l ALUCtl [2:0] $end
$upscope $end
$scope module Add1 $end
$var wire 32 m b [31:0] $end
$var wire 32 n sum [31:0] $end
$var wire 32 o a [31:0] $end
$upscope $end
$scope module Add2 $end
$var wire 32 p sum [31:0] $end
$var wire 32 q b [31:0] $end
$var wire 32 r a [31:0] $end
$upscope $end
$scope module Add3 $end
$var wire 32 s sum [31:0] $end
$var wire 32 t b [31:0] $end
$var wire 32 u a [31:0] $end
$upscope $end
$scope module Control $end
$var wire 7 v opcode [6:0] $end
$var wire 1 8 NoOp $end
$var reg 2 w ALUOp [1:0] $end
$var reg 1 b ALUSrc $end
$var reg 1 ^ Branch_o $end
$var reg 1 ; MemRead $end
$var reg 1 : MemWrite $end
$var reg 1 9 MemtoReg $end
$var reg 1 3 RegWrite $end
$upscope $end
$scope module Data_Memory $end
$var wire 1 ! clk_i $end
$var wire 32 x data_o [31:0] $end
$var wire 32 y data_i [31:0] $end
$var wire 32 z addr_i [31:0] $end
$var wire 1 [ MemWrite_i $end
$var wire 1 \ MemRead_i $end
$upscope $end
$scope module EX_MEM $end
$var wire 32 { MemAddr_i [31:0] $end
$var wire 1 ! clk_i $end
$var wire 1 " rst_i $end
$var wire 32 | WriteData_i [31:0] $end
$var wire 1 K RegWrite_i $end
$var wire 5 } RDaddr_i [4:0] $end
$var wire 1 Q MemtoReg_i $end
$var wire 1 R MemWrite_i $end
$var wire 1 S MemRead_i $end
$var reg 32 ~ MemAddr_o [31:0] $end
$var reg 1 \ MemRead_o $end
$var reg 1 [ MemWrite_o $end
$var reg 1 Z MemtoReg_o $end
$var reg 5 !" RDaddr_o [4:0] $end
$var reg 1 X RegWrite_o $end
$var reg 32 "" WriteData_o [31:0] $end
$upscope $end
$scope module Forwarding $end
$var wire 5 #" EXMEM_RD [4:0] $end
$var wire 1 X EXMEM_RegWrite $end
$var wire 1 A MEMWB_RegWrite $end
$var wire 5 $" MEMWB_RD [4:0] $end
$var wire 5 %" IDEX_RS2 [4:0] $end
$var wire 5 &" IDEX_RS1 [4:0] $end
$var reg 2 '" A [1:0] $end
$var reg 2 (" B [1:0] $end
$upscope $end
$scope module Hazard_Detection $end
$var wire 5 )" RS1 [4:0] $end
$var wire 5 *" RS2 [4:0] $end
$var wire 5 +" RD [4:0] $end
$var wire 1 S MemRead $end
$var reg 1 8 NoOp $end
$var reg 1 7 PCWrite $end
$var reg 1 ' Stall_o $end
$upscope $end
$scope module ID_EX $end
$var wire 2 ," ALUOp_i [1:0] $end
$var wire 1 b ALUSrc_i $end
$var wire 1 ^ Branch_i $end
$var wire 1 ; MemRead_i $end
$var wire 1 : MemWrite_i $end
$var wire 1 9 MemtoReg_i $end
$var wire 5 -" RDaddr_i [4:0] $end
$var wire 5 ." RS1addr_i [4:0] $end
$var wire 5 /" RS2addr_i [4:0] $end
$var wire 1 3 RegWrite_i $end
$var wire 1 ! clk_i $end
$var wire 10 0" fun10_i [9:0] $end
$var wire 1 " rst_i $end
$var wire 32 1" pc_i [31:0] $end
$var wire 32 2" immed_i [31:0] $end
$var wire 1 1 flush_i $end
$var wire 32 3" RS2_i [31:0] $end
$var wire 32 4" RS1_i [31:0] $end
$var reg 2 5" ALUOp_o [1:0] $end
$var reg 1 U ALUSrc_o $end
$var reg 1 T Branch_o $end
$var reg 1 S MemRead_o $end
$var reg 1 R MemWrite_o $end
$var reg 1 Q MemtoReg_o $end
$var reg 5 6" RDaddr_o [4:0] $end
$var reg 32 7" RS1_o [31:0] $end
$var reg 5 8" RS1addr_o [4:0] $end
$var reg 32 9" RS2_o [31:0] $end
$var reg 5 :" RS2addr_o [4:0] $end
$var reg 1 K RegWrite_o $end
$var reg 10 ;" fun10_o [9:0] $end
$var reg 32 <" immed_o [31:0] $end
$var reg 32 =" pc_o [31:0] $end
$upscope $end
$scope module IF_ID $end
$var wire 1 ! clk_i $end
$var wire 1 " rst_i $end
$var wire 1 ' stall_i $end
$var wire 32 >" pc_i [31:0] $end
$var wire 32 ?" instr_i [31:0] $end
$var wire 1 0 flush_i $end
$var reg 32 @" instr_o [31:0] $end
$var reg 32 A" pc_o [31:0] $end
$upscope $end
$scope module Instruction_Memory $end
$var wire 32 B" instr_o [31:0] $end
$var wire 32 C" addr_i [31:0] $end
$upscope $end
$scope module MEM_WB $end
$var wire 32 D" ALUout_i [31:0] $end
$var wire 1 Z MemtoReg_i $end
$var wire 5 E" RDaddr_i [4:0] $end
$var wire 32 F" ReadData_i [31:0] $end
$var wire 1 X RegWrite_i $end
$var wire 1 ! clk_i $end
$var wire 1 " rst_i $end
$var reg 32 G" ALUout_o [31:0] $end
$var reg 1 D MemtoReg_o $end
$var reg 5 H" RDaddr_o [4:0] $end
$var reg 32 I" ReadData_o [31:0] $end
$var reg 1 A RegWrite_o $end
$upscope $end
$scope module MUXA $end
$var wire 32 J" a [31:0] $end
$var wire 32 K" c [31:0] $end
$var wire 2 L" ctl [1:0] $end
$var wire 32 M" d [31:0] $end
$var wire 32 N" out [31:0] $end
$var wire 32 O" b [31:0] $end
$upscope $end
$scope module MUXB $end
$var wire 32 P" a [31:0] $end
$var wire 32 Q" c [31:0] $end
$var wire 2 R" ctl [1:0] $end
$var wire 32 S" d [31:0] $end
$var wire 32 T" out [31:0] $end
$var wire 32 U" b [31:0] $end
$upscope $end
$scope module MUXC $end
$var wire 32 V" a [31:0] $end
$var wire 32 W" b [31:0] $end
$var wire 1 U ctl $end
$var wire 32 X" out [31:0] $end
$upscope $end
$scope module MUX_ADD3 $end
$var wire 32 Y" a [31:0] $end
$var wire 32 Z" b [31:0] $end
$var wire 32 [" out [31:0] $end
$var wire 1 1 ctl $end
$upscope $end
$scope module MUX_PC1 $end
$var wire 32 \" a [31:0] $end
$var wire 32 ]" b [31:0] $end
$var wire 1 ^" ctl $end
$var wire 32 _" out [31:0] $end
$upscope $end
$scope module MUX_PC2 $end
$var wire 32 `" a [31:0] $end
$var wire 32 a" b [31:0] $end
$var wire 32 b" out [31:0] $end
$var wire 1 ) ctl $end
$upscope $end
$scope module PC $end
$var wire 1 7 PCWrite_i $end
$var wire 1 ! clk_i $end
$var wire 32 c" pc_i [31:0] $end
$var wire 1 " rst_i $end
$var reg 32 d" pc_o [31:0] $end
$upscope $end
$scope module Registers $end
$var wire 5 e" RDaddr_i [4:0] $end
$var wire 5 f" RS1addr_i [4:0] $end
$var wire 5 g" RS2addr_i [4:0] $end
$var wire 1 A RegWrite_i $end
$var wire 1 ! clk_i $end
$var wire 1 " rst_i $end
$var wire 32 h" RS2data_o [31:0] $end
$var wire 32 i" RS1data_o [31:0] $end
$var wire 32 j" RDdata_i [31:0] $end
$var integer 32 k" i [31:0] $end
$upscope $end
$scope module Sign_Extend $end
$var wire 32 l" instr [31:0] $end
$var reg 32 m" immed [31:0] $end
$upscope $end
$scope module WBSrc $end
$var wire 32 n" a [31:0] $end
$var wire 32 o" b [31:0] $end
$var wire 1 D ctl $end
$var wire 32 p" out [31:0] $end
$upscope $end
$scope module branch_predictor $end
$var wire 1 ^ Branch_i $end
$var wire 1 T IDEX_Branch $end
$var wire 1 ! clk_i $end
$var wire 1 " rst_i $end
$var wire 1 & zero_i $end
$var reg 1 1 flush_IDEXE $end
$var reg 1 0 flush_IFID $end
$var reg 1 ) predict_PCWrite_o $end
$var reg 1 ( predict_o $end
$var reg 2 q" state [1:0] $end
$upscope $end
$upscope $end
$upscope $end
$enddefinitions $end
#0
$dumpvars
b11 q"
b0 p"
b0 o"
b0 n"
b0 m"
b0 l"
bx k"
b0 j"
bx i"
bx h"
b0 g"
b0 f"
b0 e"
bx d"
bx c"
bx b"
b100 a"
bx `"
bx _"
0^"
b0 ]"
bx \"
b100 ["
b0 Z"
b100 Y"
b0 X"
b0 W"
b0 V"
b0 U"
b0 T"
b0 S"
b0 R"
b0 Q"
b0 P"
b0 O"
b0 N"
b0 M"
b0 L"
b0 K"
b0 J"
b0 I"
b0 H"
b0 G"
b0 F"
b0 E"
b0 D"
bx C"
bx B"
b0 A"
b0 @"
bx ?"
bx >"
b0 ="
b0 <"
b0 ;"
b0 :"
b0 9"
b0 8"
b0 7"
b0 6"
b0 5"
bx 4"
bx 3"
b0 2"
b0 1"
b0 0"
b0 /"
b0 ."
b0 -"
b0 ,"
b0 +"
b0 *"
b0 )"
b0 ("
b0 '"
b0 &"
b0 %"
b0 $"
b0 #"
b0 ""
b0 !"
b0 ~
b0 }
b0 |
b0 {
b0 z
b0 y
b0 x
b0 w
b0 v
b0 u
b100 t
b100 s
b0 r
b0 q
b0 p
bx o
bx n
b100 m
b10 l
b0 k
b0 j
b0 i
b10 h
b0 g
b0 f
b100 e
b10 d
b0 c
0b
b0 a
b0 `
b0 _
0^
b0 ]
0\
0[
0Z
b0 Y
0X
b0 W
b0 V
0U
0T
0S
0R
0Q
b0 P
b0 O
b0 N
b0 M
b0 L
0K
b0 J
b0 I
b0 H
b0 G
b0 F
b0 E
0D
b0 C
b0 B
0A
b0 @
bx ?
b0 >
bx =
b100 <
0;
0:
09
08
17
bx 6
bx 5
b0 4
03
b0 2
01
00
b0 /
b0 .
b0 -
bx ,
bx +
bx *
0)
1(
0'
0&
b11 %
b100000 $
b0 #
1"
0!
$end
#6
b100 +
b100 b"
b100 c"
b10100000000000100010011 ,
b10100000000000100010011 ?"
b10100000000000100010011 B"
b100 =
b100 _"
b100 `"
b0 6
b0 4"
b0 i"
b0 5
b0 3"
b0 h"
b100 ?
b100 n
b100 \"
b0 *
b0 o
b0 >"
b0 C"
b0 d"
b100000 k"
0"
#12
1"
#25
b1 c
b1 w
b1 ,"
13
1b
b1000 +
b1000 b"
b1000 c"
b101 >
b101 p
b101 ]"
b101 -
b101 q
b101 2"
b101 m"
b101 *"
b10 -"
b101 /"
b101 g"
b10011 v
b100000000000010010011 ,
b100000000000010010011 ?"
b100000000000010010011 B"
b1000 =
b1000 _"
b1000 `"
b10100000000000100010011 G
b10100000000000100010011 @"
b10100000000000100010011 l"
b1000 ?
b1000 n
b1000 \"
b100 *
b100 o
b100 >"
b100 C"
b100 d"
b1 #
1!
#50
0!
#75
b1100 +
b1100 b"
b1100 c"
b101 _
b101 i
b101 {
b10000000001000010001100011 ,
b10000000001000010001100011 ?"
b10000000001000010001100011 B"
b1100 =
b1100 _"
b1100 `"
b1 -
b1 q
b1 2"
b1 m"
b1 *"
b1 -"
b1 /"
b1 g"
b101 `
b101 f
b101 X"
b1100 ?
b1100 n
b1100 \"
b1000 *
b1000 o
b1000 >"
b1000 C"
b1000 d"
b100000000000010010011 G
b100000000000010010011 @"
b100000000000010010011 l"
b101 >
b101 p
b101 ]"
b100 F
b100 r
b100 1"
b100 A"
b10 P
b10 }
b10 +"
b10 6"
b101 M
b101 %"
b101 :"
b101 I
b101 <"
b101 W"
b101 Z"
1U
b1 V
b1 k
b1 5"
1K
b10 #
1!
#100
0!
#125
10
1^"
b1 _
b1 i
b1 {
b11 c
b11 w
b11 ,"
1^
03
0b
b110000 +
b110000 b"
b110000 c"
b1 `
b1 f
b1 X"
b101000 -
b101000 q
b101000 2"
b101000 m"
b0 *"
b1 )"
b1000 -"
b0 /"
b1 ."
b1000 0"
b0 g"
b1 f"
b1100011 v
b100001000000010010011 ,
b100001000000010010011 ?"
b100001000000010010011 B"
b110000 =
b110000 _"
b110000 `"
b10 Y
b10 !"
b10 #"
b10 E"
b101 ]
b101 z
b101 ~
b101 D"
b101 K"
b101 Q"
1X
b1000 <
b1000 s
b1000 a"
b100 H
b100 u
b100 ="
b1 P
b1 }
b1 +"
b1 6"
b1 M
b1 %"
b1 :"
b1 I
b1 <"
b1 W"
b1 Z"
b10000000001000010001100011 G
b10000000001000010001100011 @"
b10000000001000010001100011 l"
b110000 >
b110000 p
b110000 ]"
b1000 F
b1000 r
b1000 1"
b1000 A"
b10000 ?
b10000 n
b10000 \"
b1100 *
b1100 o
b1100 >"
b1100 C"
b1100 d"
b11 #
1!
#150
0!
#175
0^"
10
b1 a
b1 g
b1 N"
b0 c
b0 w
b0 ,"
0^
0&
b1 _
b1 i
b1 {
b1100 +
b1100 b"
b1100 c"
b0 ,
b0 ?"
b0 B"
b0 -
b0 q
b0 2"
b0 m"
b0 )"
b0 -"
b0 ."
b0 0"
b0 f"
b0 v
b110100 =
b110100 _"
b110100 `"
b0 `
b0 f
b0 X"
b110 d
b110 h
b110 l
1)
b101 2
b101 O"
b101 U"
b101 j"
b101 p"
b10 /
b10 '"
b10 L"
b110100 ?
b110100 n
b110100 \"
b110000 *
b110000 o
b110000 >"
b110000 C"
b110000 d"
b0 G
b0 @"
b0 l"
b0 >
b0 p
b0 ]"
b0 F
b0 r
b0 1"
b0 A"
b1100 <
b1100 s
b1100 a"
b1000 H
b1000 u
b1000 ="
b1000 P
b1000 }
b1000 +"
b1000 6"
b0 M
b0 %"
b0 :"
b1 O
b1 &"
b1 8"
b1000 J
b1000 j
b1000 ;"
b101000 I
b101000 <"
b101000 W"
b101000 Z"
0U
b11 V
b11 k
b11 5"
1T
0K
b1 Y
b1 !"
b1 #"
b1 E"
b1 ]
b1 z
b1 ~
b1 D"
b1 K"
b1 Q"
b10 C
b10 $"
b10 H"
b10 e"
b101 E
b101 G"
b101 n"
1A
b100 #
1!
#200
0!
#225
b0 _
b0 i
b0 {
b0 a
b0 g
b0 N"
b1 2
b1 O"
b1 U"
b1 j"
b1 p"
b10000 +
b10000 b"
b10000 c"
b0 /
b0 '"
b0 L"
b10 d
b10 h
b10 l
0)
00
b100001000000010010011 ,
b100001000000010010011 ?"
b100001000000010010011 B"
b10000 =
b10000 _"
b10000 `"
b10 q"
b1 C
b1 $"
b1 H"
b1 e"
b1 E
b1 G"
b1 n"
b1000 Y
b1000 !"
b1000 #"
b1000 E"
0X
b100 <
b100 s
b100 a"
b0 H
b0 u
b0 ="
b0 P
b0 }
b0 +"
b0 6"
b0 O
b0 &"
b0 8"
b0 J
b0 j
b0 ;"
b0 I
b0 <"
b0 W"
b0 Z"
b0 V
b0 k
b0 5"
0T
b10000 ?
b10000 n
b10000 \"
b1100 *
b1100 o
b1100 >"
b1100 C"
b1100 d"
b101 #
1!
#250
0!
#275
b10100 +
b10100 b"
b10100 c"
b1 5
b1 3"
b1 h"
b1 6
b1 4"
b1 i"
b1 c
b1 w
b1 ,"
13
1b
b1000001000100001100011 ,
b1000001000100001100011 ?"
b1000001000100001100011 B"
b10100 =
b10100 _"
b10100 `"
b1 -
b1 q
b1 2"
b1 m"
b1 *"
b1 )"
b1 -"
b1 /"
b1 ."
b1 g"
b1 f"
b10011 v
b10100 ?
b10100 n
b10100 \"
b10000 *
b10000 o
b10000 >"
b10000 C"
b10000 d"
b100001000000010010011 G
b100001000000010010011 @"
b100001000000010010011 l"
b1101 >
b1101 p
b1101 ]"
b1100 F
b1100 r
b1100 1"
b1100 A"
b0 Y
b0 !"
b0 #"
b0 E"
b0 ]
b0 z
b0 ~
b0 D"
b0 K"
b0 Q"
b1000 C
b1000 $"
b1000 H"
b1000 e"
0A
b110 #
1!
#300
0!
#325
10
1^"
b1 @
b1 |
b1 T"
b1 V"
b1 a
b1 g
b1 N"
b10 _
b10 i
b10 {
b101 5
b101 3"
b101 h"
b11 c
b11 w
b11 ,"
1^
03
0b
b100000 +
b100000 b"
b100000 c"
b0 2
b0 O"
b0 U"
b0 j"
b0 p"
b1 `
b1 f
b1 X"
b10000 -
b10000 q
b10000 2"
b10000 m"
b10 *"
b10000 -"
b10 /"
b10 g"
b1100011 v
b11111110000000000000110011100011 ,
b11111110000000000000110011100011 ?"
b11111110000000000000110011100011 B"
b100000 =
b100000 _"
b100000 `"
b0 C
b0 $"
b0 H"
b0 e"
b0 E
b0 G"
b0 n"
b10000 <
b10000 s
b10000 a"
b1100 H
b1100 u
b1100 ="
b1 P
b1 }
b1 +"
b1 6"
b1 M
b1 %"
b1 :"
b1 O
b1 &"
b1 8"
b1 I
b1 <"
b1 W"
b1 Z"
b1 L
b1 9"
b1 P"
b1 N
b1 7"
b1 J"
1U
b1 V
b1 k
b1 5"
1K
b1000001000100001100011 G
b1000001000100001100011 @"
b1000001000100001100011 l"
b100000 >
b100000 p
b100000 ]"
b10000 F
b10000 r
b10000 1"
b10000 A"
b11000 ?
b11000 n
b11000 \"
b10100 *
b10100 o
b10100 >"
b10100 C"
b10100 d"
b111 #
1!
#350
0!
#375
0^"
b101 `
b101 f
b101 X"
10
b10 a
b10 g
b10 N"
b0 5
b0 3"
b0 h"
b0 6
b0 4"
b0 i"
b0 c
b0 w
b0 ,"
0^
b101 @
b101 |
b101 T"
b101 V"
0&
b11111111111111111111111111111101 _
b11111111111111111111111111111101 i
b11111111111111111111111111111101 {
b10100 +
b10100 b"
b10100 c"
b11111110000000001000111011100011 ,
b11111110000000001000111011100011 ?"
b11111110000000001000111011100011 B"
b0 -
b0 q
b0 2"
b0 m"
b0 *"
b0 )"
b0 -"
b0 /"
b0 ."
b0 g"
b0 f"
b0 v
b100100 =
b100100 _"
b100100 `"
b110 d
b110 h
b110 l
1)
b10 /
b10 '"
b10 L"
b100100 ?
b100100 n
b100100 \"
b100000 *
b100000 o
b100000 >"
b100000 C"
b100000 d"
b0 G
b0 @"
b0 l"
b0 >
b0 p
b0 ]"
b0 F
b0 r
b0 1"
b0 A"
b10100 <
b10100 s
b10100 a"
b10000 H
b10000 u
b10000 ="
b10000 P
b10000 }
b10000 +"
b10000 6"
b10 M
b10 %"
b10 :"
b10000 I
b10000 <"
b10000 W"
b10000 Z"
b101 L
b101 9"
b101 P"
0U
b11 V
b11 k
b11 5"
1T
0K
b1 Y
b1 !"
b1 #"
b1 E"
b1 W
b1 y
b1 ""
b10 ]
b10 z
b10 ~
b10 D"
b10 K"
b10 Q"
1X
b1000 #
1!
#400
0!
#425
b0 `
b0 f
b0 X"
b0 a
b0 g
b0 N"
b0 @
b0 |
b0 T"
b0 V"
b0 _
b0 i
b0 {
b10 2
b10 O"
b10 U"
b10 j"
b10 p"
b11000 +
b11000 b"
b11000 c"
b0 /
b0 '"
b0 L"
b10 d
b10 h
b10 l
0(
0)
00
b11111110000000000000110011100011 ,
b11111110000000000000110011100011 ?"
b11111110000000000000110011100011 B"
b11000 =
b11000 _"
b11000 `"
b1 q"
b1 C
b1 $"
b1 H"
b1 e"
b10 E
b10 G"
b10 n"
1A
b10000 Y
b10000 !"
b10000 #"
b10000 E"
b101 W
b101 y
b101 ""
b11111111111111111111111111111101 ]
b11111111111111111111111111111101 z
b11111111111111111111111111111101 ~
b11111111111111111111111111111101 D"
b11111111111111111111111111111101 K"
b11111111111111111111111111111101 Q"
0X
b100 <
b100 s
b100 a"
b0 H
b0 u
b0 ="
b0 P
b0 }
b0 +"
b0 6"
b0 M
b0 %"
b0 :"
b0 O
b0 &"
b0 8"
b0 I
b0 <"
b0 W"
b0 Z"
b0 L
b0 9"
b0 P"
b0 N
b0 7"
b0 J"
b0 V
b0 k
b0 5"
0T
b11000 ?
b11000 n
b11000 \"
b10100 *
b10100 o
b10100 >"
b10100 C"
b10100 d"
b1001 #
1!
#450
0!
#475
b11100 +
b11100 b"
b11100 c"
b11 c
b11 w
b11 ,"
1^
b10011 ,
b10011 ?"
b10011 B"
b11100 =
b11100 _"
b11100 `"
b11111111111111111111111111111000 -
b11111111111111111111111111111000 q
b11111111111111111111111111111000 2"
b11111111111111111111111111111000 m"
b11001 -"
b1111111000 0"
b1100011 v
b11111111111111111111111111111101 2
b11111111111111111111111111111101 O"
b11111111111111111111111111111101 U"
b11111111111111111111111111111101 j"
b11111111111111111111111111111101 p"
b11100 ?
b11100 n
b11100 \"
b11000 *
b11000 o
b11000 >"
b11000 C"
b11000 d"
b11111110000000000000110011100011 G
b11111110000000000000110011100011 @"
b11111110000000000000110011100011 l"
b1100 >
b1100 p
b1100 ]"
b10100 F
b10100 r
b10100 1"
b10100 A"
b0 Y
b0 !"
b0 #"
b0 E"
b0 W
b0 y
b0 ""
b0 ]
b0 z
b0 ~
b0 D"
b0 K"
b0 Q"
b10000 C
b10000 $"
b10000 H"
b10000 e"
b11111111111111111111111111111101 E
b11111111111111111111111111111101 G"
b11111111111111111111111111111101 n"
0A
b1010 #
1!
#500
0!
#525
b11111111111111111111111111111000 e
b11111111111111111111111111111000 t
b11111111111111111111111111111000 ["
1)
11
10
1&
b1 c
b1 w
b1 ,"
0^
13
1b
b1100 +
b1100 b"
b1100 c"
b0 2
b0 O"
b0 U"
b0 j"
b0 p"
b110 d
b110 h
b110 l
b0 -
b0 q
b0 2"
b0 m"
b0 -"
b0 0"
b10011 v
b100000 =
b100000 _"
b100000 `"
b0 C
b0 $"
b0 H"
b0 e"
b0 E
b0 G"
b0 n"
b1100 <
b1100 s
b1100 a"
b10100 H
b10100 u
b10100 ="
b11001 P
b11001 }
b11001 +"
b11001 6"
b1111111000 J
b1111111000 j
b1111111000 ;"
b11111111111111111111111111111000 I
b11111111111111111111111111111000 <"
b11111111111111111111111111111000 W"
b11111111111111111111111111111000 Z"
b11 V
b11 k
b11 5"
1T
b10011 G
b10011 @"
b10011 l"
b11000 >
b11000 p
b11000 ]"
b11000 F
b11000 r
b11000 1"
b11000 A"
b100000 ?
b100000 n
b100000 \"
b11100 *
b11100 o
b11100 >"
b11100 C"
b11100 d"
b1011 #
1!
#550
0!
#575
b0 c
b0 w
b0 ,"
03
0b
0&
b100001000000010010011 ,
b100001000000010010011 ?"
b100001000000010010011 B"
b10000 =
b10000 _"
b10000 `"
b0 v
b10000 +
b10000 b"
b10000 c"
b100 e
b100 t
b100 ["
b10 d
b10 h
b10 l
1(
0)
01
00
b10000 ?
b10000 n
b10000 \"
b1100 *
b1100 o
b1100 >"
b1100 C"
b1100 d"
b0 G
b0 @"
b0 l"
b0 >
b0 p
b0 ]"
b0 F
b0 r
b0 1"
b0 A"
b100 <
b100 s
b100 a"
b0 H
b0 u
b0 ="
b0 P
b0 }
b0 +"
b0 6"
b0 J
b0 j
b0 ;"
b0 I
b0 <"
b0 W"
b0 Z"
b0 V
b0 k
b0 5"
0T
b11001 Y
b11001 !"
b11001 #"
b11001 E"
b10 q"
b1100 #
1!
#600
0!
#625
b10 5
b10 3"
b10 h"
b10 6
b10 4"
b10 i"
b1 c
b1 w
b1 ,"
13
1b
b10100 +
b10100 b"
b10100 c"
b1 -
b1 q
b1 2"
b1 m"
b1 *"
b1 )"
b1 -"
b1 /"
b1 ."
b1 g"
b1 f"
b10011 v
b1000001000100001100011 ,
b1000001000100001100011 ?"
b1000001000100001100011 B"
b10100 =
b10100 _"
b10100 `"
b11001 C
b11001 $"
b11001 H"
b11001 e"
b0 Y
b0 !"
b0 #"
b0 E"
b100001000000010010011 G
b100001000000010010011 @"
b100001000000010010011 l"
b1101 >
b1101 p
b1101 ]"
b1100 F
b1100 r
b1100 1"
b1100 A"
b10100 ?
b10100 n
b10100 \"
b10000 *
b10000 o
b10000 >"
b10000 C"
b10000 d"
b1101 #
1!
#650
0!
#675
10
1^"
b100000 +
b100000 b"
b100000 c"
b101 5
b101 3"
b101 h"
b11 c
b11 w
b11 ,"
1^
03
0b
b10 @
b10 |
b10 T"
b10 V"
b10 a
b10 g
b10 N"
b11 _
b11 i
b11 {
b11111110000000000000110011100011 ,
b11111110000000000000110011100011 ?"
b11111110000000000000110011100011 B"
b100000 =
b100000 _"
b100000 `"
b10000 -
b10000 q
b10000 2"
b10000 m"
b10 *"
b10000 -"
b10 /"
b10 g"
b1100011 v
b1 `
b1 f
b1 X"
b11000 ?
b11000 n
b11000 \"
b10100 *
b10100 o
b10100 >"
b10100 C"
b10100 d"
b1000001000100001100011 G
b1000001000100001100011 @"
b1000001000100001100011 l"
b100000 >
b100000 p
b100000 ]"
b10000 F
b10000 r
b10000 1"
b10000 A"
b10000 <
b10000 s
b10000 a"
b1100 H
b1100 u
b1100 ="
b1 P
b1 }
b1 +"
b1 6"
b1 M
b1 %"
b1 :"
b1 O
b1 &"
b1 8"
b1 I
b1 <"
b1 W"
b1 Z"
b10 L
b10 9"
b10 P"
b10 N
b10 7"
b10 J"
1U
b1 V
b1 k
b1 5"
1K
b0 C
b0 $"
b0 H"
b0 e"
b1110 #
1!
#700
0!
#725
b11 a
b11 g
b11 N"
10
0^"
b101 @
b101 |
b101 T"
b101 V"
0&
b11111111111111111111111111111110 _
b11111111111111111111111111111110 i
b11111111111111111111111111111110 {
b0 5
b0 3"
b0 h"
b0 6
b0 4"
b0 i"
b0 c
b0 w
b0 ,"
0^
b10100 +
b10100 b"
b10100 c"
b10 /
b10 '"
b10 L"
b101 `
b101 f
b101 X"
b110 d
b110 h
b110 l
1)
b0 -
b0 q
b0 2"
b0 m"
b0 *"
b0 )"
b0 -"
b0 /"
b0 ."
b0 g"
b0 f"
b0 v
b100100 =
b100100 _"
b100100 `"
b11111110000000001000111011100011 ,
b11111110000000001000111011100011 ?"
b11111110000000001000111011100011 B"
b1 Y
b1 !"
b1 #"
b1 E"
b10 W
b10 y
b10 ""
b11 ]
b11 z
b11 ~
b11 D"
b11 K"
b11 Q"
1X
b10100 <
b10100 s
b10100 a"
b10000 H
b10000 u
b10000 ="
b10000 P
b10000 }
b10000 +"
b10000 6"
b10 M
b10 %"
b10 :"
b10000 I
b10000 <"
b10000 W"
b10000 Z"
b101 L
b101 9"
b101 P"
0U
b11 V
b11 k
b11 5"
1T
0K
b0 G
b0 @"
b0 l"
b0 >
b0 p
b0 ]"
b0 F
b0 r
b0 1"
b0 A"
b100100 ?
b100100 n
b100100 \"
b100000 *
b100000 o
b100000 >"
b100000 C"
b100000 d"
b1111 #
1!
#750
0!
