hw5/lab3/log/waveform_1.vcd
$date
	Sat Dec 23 13:12:44 2023
$end
$version
	Icarus Verilog
$end
$timescale
	1s
$end
$scope module TestBench $end
$var reg 1 ! Clk $end
$var reg 1 " Reset $end
$var integer 32 # counter [31:0] $end
$var integer 32 $ i [31:0] $end
$var integer 32 % outfile [31:0] $end
$scope module CPU $end
$var wire 1 ! clk_i $end
$var wire 1 " rst_i $end
$var wire 1 & zero $end
$var wire 1 ' stall $end
$var wire 1 ( predict_o $end
$var wire 1 ) predict_PCWrite_o $end
$var wire 32 * pc_o [31:0] $end
$var wire 32 + pc_i [31:0] $end
$var wire 32 , instr_o [31:0] $end
$var wire 32 - immed [31:0] $end
$var wire 2 . forward_B [1:0] $end
$var wire 2 / forward_A [1:0] $end
$var wire 1 0 flush_IFID $end
$var wire 1 1 flush_IDEX $end
$var wire 32 2 WBData [31:0] $end
$var wire 1 3 RegWrite $end
$var wire 32 4 ReadData_o [31:0] $end
$var wire 32 5 RS2data [31:0] $end
$var wire 32 6 RS1data [31:0] $end
$var wire 1 7 PCWrite $end
$var wire 1 8 NoOp $end
$var wire 1 9 MemtoReg $end
$var wire 1 : MemWrite $end
$var wire 1 ; MemRead $end
$var wire 32 < MUX_PC2_Src2 [31:0] $end
$var wire 32 = MUX_PC2_Src1 [31:0] $end
$var wire 32 > MUX_PC1_Src2 [31:0] $end
$var wire 32 ? MUX_PC1_Src1 [31:0] $end
$var wire 32 @ MUXC_Src1 [31:0] $end
$var wire 1 A MEMWB_RegWrite $end
$var wire 32 B MEMWB_ReadData [31:0] $end
$var wire 5 C MEMWB_RDaddr [4:0] $end
$var wire 1 D MEMWB_MemtoReg $end
$var wire 32 E MEMWB_ALUout [31:0] $end
$var wire 32 F IFID_pc_o [31:0] $end
$var wire 32 G IFID_instr [31:0] $end
$var wire 32 H IDEX_pc_o [31:0] $end
$var wire 32 I IDEX_immed [31:0] $end
$var wire 10 J IDEX_fun10 [9:0] $end
$var wire 1 K IDEX_RegWrite $end
$var wire 32 L IDEX_RS2data [31:0] $end
$var wire 5 M IDEX_RS2addr [4:0] $end
$var wire 32 N IDEX_RS1data [31:0] $end
$var wire 5 O IDEX_RS1addr [4:0] $end
$var wire 5 P IDEX_RDaddr [4:0] $end
$var wire 1 Q IDEX_MemtoReg $end
$var wire 1 R IDEX_MemWrite $end
$var wire 1 S IDEX_MemRead $end
$var wire 1 T IDEX_Branch $end
$var wire 1 U IDEX_ALUSrc $end
$var wire 2 V IDEX_ALUOp [1:0] $end
$var wire 32 W EXMEM_WriteData [31:0] $end
$var wire 1 X EXMEM_RegWrite $end
$var wire 5 Y EXMEM_RDaddr [4:0] $end
$var wire 1 Z EXMEM_MemtoReg $end
$var wire 1 [ EXMEM_MemWrite $end
$var wire 1 \ EXMEM_MemRead $end
$var wire 32 ] EXMEM_ALUout [31:0] $end
$var wire 1 ^ Branch $end
$var wire 32 _ ALUout [31:0] $end
$var wire 32 ` ALUSrc2 [31:0] $end
$var wire 32 a ALUSrc1 [31:0] $end
$var wire 1 b ALUSrc $end
$var wire 2 c ALUOp [1:0] $end
$var wire 3 d ALUCtl [2:0] $end
$var wire 32 e ADD3_Src2 [31:0] $end
$scope module ALU $end
$var wire 32 f b [31:0] $end
$var wire 32 g a [31:0] $end
$var wire 3 h ALUCtl [2:0] $end
$var reg 32 i data_o [31:0] $end
$var reg 1 & zero $end
$upscope $end
$scope module ALU_Control $end
$var wire 10 j I [9:0] $end
$var wire 2 k ALUOp [1:0] $end
$var reg 3 l ALUCtl [2:0] $end
$upscope $end
$scope module Add1 $end
$var wire 32 m b [31:0] $end
$var wire 32 n sum [31:0] $end
$var wire 32 o a [31:0] $end
$upscope $end
$scope module Add2 $end
$var wire 32 p sum [31:0] $end
$var wire 32 q b [31:0] $end
$var wire 32 r a [31:0] $end
$upscope $end
$scope module Add3 $end
$var wire 32 s sum [31:0] $end
$var wire 32 t b [31:0] $end
$var wire 32 u a [31:0] $end
$upscope $end
$scope module Control $end
$var wire 7 v opcode [6:0] $end
$var wire 1 8 NoOp $end
$var reg 2 w ALUOp [1:0] $end
$var reg 1 b ALUSrc $end
$var reg 1 ^ Branch_o $end
$var reg 1 ; MemRead $end
$var reg 1 : MemWrite $end
$var reg 1 9 MemtoReg $end
$var reg 1 3 RegWrite $end
$upscope $end
$scope module Data_Memory $end
$var wire 1 ! clk_i $end
$var wire 32 x data_o [31:0] $end
$var wire 32 y data_i [31:0] $end
$var wire 32 z addr_i [31:0] $end
$var wire 1 [ MemWrite_i $end
$var wire 1 \ MemRead_i $end
$upscope $end
$scope module EX_MEM $end
$var wire 32 { MemAddr_i [31:0] $end
$var wire 1 ! clk_i $end
$var wire 1 " rst_i $end
$var wire 32 | WriteData_i [31:0] $end
$var wire 1 K RegWrite_i $end
$var wire 5 } RDaddr_i [4:0] $end
$var wire 1 Q MemtoReg_i $end
$var wire 1 R MemWrite_i $end
$var wire 1 S MemRead_i $end
$var reg 32 ~ MemAddr_o [31:0] $end
$var reg 1 \ MemRead_o $end
$var reg 1 [ MemWrite_o $end
$var reg 1 Z MemtoReg_o $end
$var reg 5 !" RDaddr_o [4:0] $end
$var reg 1 X RegWrite_o $end
$var reg 32 "" WriteData_o [31:0] $end
$upscope $end
$scope module Forwarding $end
$var wire 5 #" EXMEM_RD [4:0] $end
$var wire 1 X EXMEM_RegWrite $end
$var wire 1 A MEMWB_RegWrite $end
$var wire 5 $" MEMWB_RD [4:0] $end
$var wire 5 %" IDEX_RS2 [4:0] $end
$var wire 5 &" IDEX_RS1 [4:0] $end
$var reg 2 '" A [1:0] $end
$var reg 2 (" B [1:0] $end
$upscope $end
$scope module Hazard_Detection $end
$var wire 5 )" RS1 [4:0] $end
$var wire 5 *" RS2 [4:0] $end
$var wire 5 +" RD [4:0] $end
$var wire 1 S MemRead $end
$var reg 1 8 NoOp $end
$var reg 1 7 PCWrite $end
$var reg 1 ' Stall_o $end
$upscope $end
$scope module ID_EX $end
$var wire 2 ," ALUOp_i [1:0] $end
$var wire 1 b ALUSrc_i $end
$var wire 1 ^ Branch_i $end
$var wire 1 ; MemRead_i $end
$var wire 1 : MemWrite_i $end
$var wire 1 9 MemtoReg_i $end
$var wire 5 -" RDaddr_i [4:0] $end
$var wire 5 ." RS1addr_i [4:0] $end
$var wire 5 /" RS2addr_i [4:0] $end
$var wire 1 3 RegWrite_i $end
$var wire 1 ! clk_i $end
$var wire 10 0" fun10_i [9:0] $end
$var wire 1 " rst_i $end
$var wire 32 1" pc_i [31:0] $end
$var wire 32 2" immed_i [31:0] $end
$var wire 1 1 flush_i $end
$var wire 32 3" RS2_i [31:0] $end
$var wire 32 4" RS1_i [31:0] $end
$var reg 2 5" ALUOp_o [1:0] $end
$var reg 1 U ALUSrc_o $end
$var reg 1 T Branch_o $end
$var reg 1 S MemRead_o $end
$var reg 1 R MemWrite_o $end
$var reg 1 Q MemtoReg_o $end
$var reg 5 6" RDaddr_o [4:0] $end
$var reg 32 7" RS1_o [31:0] $end
$var reg 5 8" RS1addr_o [4:0] $end
$var reg 32 9" RS2_o [31:0] $end
$var reg 5 :" RS2addr_o [4:0] $end
$var reg 1 K RegWrite_o $end
$var reg 10 ;" fun10_o [9:0] $end
$var reg 32 <" immed_o [31:0] $end
$var reg 32 =" pc_o [31:0] $end
$upscope $end
$scope module IF_ID $end
$var wire 1 ! clk_i $end
$var wire 1 " rst_i $end
$var wire 1 ' stall_i $end
$var wire 32 >" pc_i [31:0] $end
$var wire 32 ?" instr_i [31:0] $end
$var wire 1 0 flush_i $end
$var reg 32 @" instr_o [31:0] $end
$var reg 32 A" pc_o [31:0] $end
$upscope $end
$scope module Instruction_Memory $end
$var wire 32 B" instr_o [31:0] $end
$var wire 32 C" addr_i [31:0] $end
$upscope $end
$scope module MEM_WB $end
$var wire 32 D" ALUout_i [31:0] $end
$var wire 1 Z MemtoReg_i $end
$var wire 5 E" RDaddr_i [4:0] $end
$var wire 32 F" ReadData_i [31:0] $end
$var wire 1 X RegWrite_i $end
$var wire 1 ! clk_i $end
$var wire 1 " rst_i $end
$var reg 32 G" ALUout_o [31:0] $end
$var reg 1 D MemtoReg_o $end
$var reg 5 H" RDaddr_o [4:0] $end
$var reg 32 I" ReadData_o [31:0] $end
$var reg 1 A RegWrite_o $end
$upscope $end
$scope module MUXA $end
$var wire 32 J" a [31:0] $end
$var wire 32 K" c [31:0] $end
$var wire 2 L" ctl [1:0] $end
$var wire 32 M" d [31:0] $end
$var wire 32 N" out [31:0] $end
$var wire 32 O" b [31:0] $end
$upscope $end
$scope module MUXB $end
$var wire 32 P" a [31:0] $end
$var wire 32 Q" c [31:0] $end
$var wire 2 R" ctl [1:0] $end
$var wire 32 S" d [31:0] $end
$var wire 32 T" out [31:0] $end
$var wire 32 U" b [31:0] $end
$upscope $end
$scope module MUXC $end
$var wire 32 V" a [31:0] $end
$var wire 32 W" b [31:0] $end
$var wire 1 U ctl $end
$var wire 32 X" out [31:0] $end
$upscope $end
$scope module MUX_ADD3 $end
$var wire 32 Y" a [31:0] $end
$var wire 32 Z" b [31:0] $end
$var wire 32 [" out [31:0] $end
$var wire 1 1 ctl $end
$upscope $end
$scope module MUX_PC1 $end
$var wire 32 \" a [31:0] $end
$var wire 32 ]" b [31:0] $end
$var wire 1 ^" ctl $end
$var wire 32 _" out [31:0] $end
$upscope $end
$scope module MUX_PC2 $end
$var wire 32 `" a [31:0] $end
$var wire 32 a" b [31:0] $end
$var wire 32 b" out [31:0] $end
$var wire 1 ) ctl $end
$upscope $end
$scope module PC $end
$var wire 1 7 PCWrite_i $end
$var wire 1 ! clk_i $end
$var wire 32 c" pc_i [31:0] $end
$var wire 1 " rst_i $end
$var reg 32 d" pc_o [31:0] $end
$upscope $end
$scope module Registers $end
$var wire 5 e" RDaddr_i [4:0] $end
$var wire 5 f" RS1addr_i [4:0] $end
$var wire 5 g" RS2addr_i [4:0] $end
$var wire 1 A RegWrite_i $end
$var wire 1 ! clk_i $end
$var wire 1 " rst_i $end
$var wire 32 h" RS2data_o [31:0] $end
$var wire 32 i" RS1data_o [31:0] $end
$var wire 32 j" RDdata_i [31:0] $end
$var integer 32 k" i [31:0] $end
$upscope $end
$scope module Sign_Extend $end
$var wire 32 l" instr [31:0] $end
$var reg 32 m" immed [31:0] $end
$upscope $end
$scope module WBSrc $end
$var wire 32 n" a [31:0] $end
$var wire 32 o" b [31:0] $end
$var wire 1 D ctl $end
$var wire 32 p" out [31:0] $end
$upscope $end
$scope module branch_predictor $end
$var wire 1 ^ Branch_i $end
$var wire 1 T IDEX_Branch $end
$var wire 1 ! clk_i $end
$var wire 1 " rst_i $end
$var wire 1 & zero_i $end
$var reg 1 1 flush_IDEXE $end
$var reg 1 0 flush_IFID $end
$var reg 1 ) predict_PCWrite_o $end
$var reg 1 ( predict_o $end
$var reg 2 q" state [1:0] $end
$upscope $end
$upscope $end
$upscope $end
$enddefinitions $end
#0
$dumpvars
b11 q"
b0 p"
b0 o"
b0 n"
b0 m"
b0 l"
bx k"
b0 j"
bx i"
bx h"
b0 g"
b0 f"
b0 e"
bx d"
bx c"
bx b"
b100 a"
bx `"
bx _"
0^"
b0 ]"
bx \"
b100 ["
b0 Z"
b100 Y"
b0 X"
b0 W"
b0 V"
b0 U"
b0 T"
b0 S"
b0 R"
b0 Q"
b0 P"
b0 O"
b0 N"
b0 M"
b0 L"
b0 K"
b0 J"
b0 I"
b0 H"
b0 G"
b0 F"
b0 E"
b0 D"
bx C"
bx B"
b0 A"
b0 @"
bx ?"
bx >"
b0 ="
b0 <"
b0 ;"
b0 :"
b0 9"
b0 8"
b0 7"
b0 6"
b0 5"
bx 4"
bx 3"
b0 2"
b0 1"
b0 0"
b0 /"
b0 ."
b0 -"
b0 ,"
b0 +"
b0 *"
b0 )"
b0 ("
b0 '"
b0 &"
b0 %"
b0 $"
b0 #"
b0 ""
b0 !"
b0 ~
b0 }
b0 |
b0 {
b0 z
b0 y
b0 x
b0 w
b0 v
b0 u
b100 t
b100 s
b0 r
b0 q
b0 p
bx o
bx n
b100 m
b10 l
b0 k
b0 j
b0 i
b10 h
b0 g
b0 f
b100 e
b10 d
b0 c
0b
b0 a
b0 `
b0 _
0^
b0 ]
0\
0[
0Z
b0 Y
0X
b0 W
b0 V
0U
0T
0S
0R
0Q
b0 P
b0 O
b0 N
b0 M
b0 L
0K
b0 J
b0 I
b0 H
b0 G
b0 F
b0 E
0D
b0 C
b0 B
0A
b0 @
bx ?
b0 >
bx =
b100 <
0;
0:
09
08
17
bx 6
bx 5
b0 4
03
b0 2
01
00
b0 /
b0 .
b0 -
bx ,
bx +
bx *
0)
1(
0'
0&
b11 %
b100000 $
b0 #
1"
0!
$end
#6
b100 +
b100 b"
b100 c"
b110000010011 ,
b110000010011 ?"
b110000010011 B"
b100 =
b100 _"
b100 `"
b0 6
b0 4"
b0 i"
b0 5
b0 3"
b0 h"
b100 ?
b100 n
b100 \"
b0 *
b0 o
b0 >"
b0 C"
b0 d"
b100000 k"
0"
#12
1"
#25
b1 c
b1 w
b1 ,"
13
1b
b1000 +
b1000 b"
b1000 c"
b11000 -"
b10011 v
b10000000000110100010011 ,
b10000000000110100010011 ?"
b10000000000110100010011 B"
b1000 =
b1000 _"
b1000 `"
b110000010011 G
b110000010011 @"
b110000010011 l"
b1000 ?
b1000 n
b1000 \"
b100 *
b100 o
b100 >"
b100 C"
b100 d"
b1 #
1!
#50
0!
#75
b1100 +
b1100 b"
b1100 c"
b10000000000111000010011 ,
b10000000000111000010011 ?"
b10000000000111000010011 B"
b1100 =
b1100 _"
b1100 `"
b100 -
b100 q
b100 2"
b100 m"
b100 *"
b11010 -"
b100 /"
b100 g"
b1100 ?
b1100 n
b1100 \"
b1000 *
b1000 o
b1000 >"
b1000 C"
b1000 d"
b10000000000110100010011 G
b10000000000110100010011 @"
b10000000000110100010011 l"
b1000 >
b1000 p
b1000 ]"
b100 F
b100 r
b100 1"
b100 A"
b11000 P
b11000 }
b11000 +"
b11000 6"
1U
b1 V
b1 k
b1 5"
1K
b10 #
1!
#100
0!
#125
b100 _
b100 i
b100 {
b10000 +
b10000 b"
b10000 c"
b100 `
b100 f
b100 X"
b11100 -"
b11111111111100000000011110010011 ,
b11111111111100000000011110010011 ?"
b11111111111100000000011110010011 B"
b10000 =
b10000 _"
b10000 `"
b11000 Y
b11000 !"
b11000 #"
b11000 E"
1X
b1000 <
b1000 s
b1000 a"
b100 H
b100 u
b100 ="
b11010 P
b11010 }
b11010 +"
b11010 6"
b100 M
b100 %"
b100 :"
b100 I
b100 <"
b100 W"
b100 Z"
b10000000000111000010011 G
b10000000000111000010011 @"
b10000000000111000010011 l"
b1100 >
b1100 p
b1100 ]"
b1000 F
b1000 r
b1000 1"
b1000 A"
b10000 ?
b10000 n
b10000 \"
b1100 *
b1100 o
b1100 >"
b1100 C"
b1100 d"
b11 #
1!
#150
0!
#175
b10100 +
b10100 b"
b10100 c"
b111110 5
b111110 3"
b111110 h"
b11110011010000110010110011 ,
b11110011010000110010110011 ?"
b11110011010000110010110011 B"
b10100 =
b10100 _"
b10100 `"
b11111111111111111111111111111111 -
b11111111111111111111111111111111 q
b11111111111111111111111111111111 2"
b11111111111111111111111111111111 m"
b11111 *"
b1111 -"
b11111 /"
b1111111000 0"
b11111 g"
b10100 ?
b10100 n
b10100 \"
b10000 *
b10000 o
b10000 >"
b10000 C"
b10000 d"
b11111111111100000000011110010011 G
b11111111111100000000011110010011 @"
b11111111111100000000011110010011 l"
b1011 >
b1011 p
b1011 ]"
b1100 F
b1100 r
b1100 1"
b1100 A"
b1100 <
b1100 s
b1100 a"
b1000 H
b1000 u
b1000 ="
b11100 P
b11100 }
b11100 +"
b11100 6"
b11010 Y
b11010 !"
b11010 #"
b11010 E"
b100 ]
b100 z
b100 ~
b100 D"
b100 K"
b100 Q"
b11000 C
b11000 $"
b11000 H"
b11000 e"
1A
b100 #
1!
#200
0!
#225
b11111111111111111111111111111111 _
b11111111111111111111111111111111 i
b11111111111111111111111111111111 {
b111110 @
b111110 |
b111110 T"
b111110 V"
b111000 5
b111000 3"
b111000 h"
b100 6
b100 4"
b100 i"
b10 c
b10 w
b10 ,"
0b
b11000 +
b11000 b"
b11000 c"
b100 2
b100 O"
b100 U"
b100 j"
b100 p"
b11111111111111111111111111111111 `
b11111111111111111111111111111111 f
b11111111111111111111111111111111 X"
b0 -
b0 q
b0 2"
b0 m"
b11100 *"
b11010 )"
b11001 -"
b11100 /"
b11010 ."
b1000 0"
b11100 g"
b11010 f"
b110011 v
b11111111111111010000110100010011 ,
b11111111111111010000110100010011 ?"
b11111111111111010000110100010011 B"
b11000 =
b11000 _"
b11000 `"
b11010 C
b11010 $"
b11010 H"
b11010 e"
b100 E
b100 G"
b100 n"
b11100 Y
b11100 !"
b11100 #"
b11100 E"
b10000 <
b10000 s
b10000 a"
b1100 H
b1100 u
b1100 ="
b1111 P
b1111 }
b1111 +"
b1111 6"
b11111 M
b11111 %"
b11111 :"
b1111111000 J
b1111111000 j
b1111111000 ;"
b11111111111111111111111111111111 I
b11111111111111111111111111111111 <"
b11111111111111111111111111111111 W"
b11111111111111111111111111111111 Z"
b111110 L
b111110 9"
b111110 P"
b11110011010000110010110011 G
b11110011010000110010110011 @"
b11110011010000110010110011 l"
b10000 >
b10000 p
b10000 ]"
b10000 F
b10000 r
b10000 1"
b10000 A"
b11000 ?
b11000 n
b11000 \"
b10100 *
b10100 o
b10100 >"
b10100 C"
b10100 d"
b101 #
1!
#250
0!
#275
b11100 +
b11100 b"
b11100 c"
b1 c
b1 w
b1 ,"
1b
b100 @
b100 |
b100 T"
b100 V"
b100 a
b100 g
b100 N"
b10000 _
b10000 i
b10000 {
b111110 5
b111110 3"
b111110 h"
b11001010110110000011 ,
b11001010110110000011 ?"
b11001010110110000011 B"
b11100 =
b11100 _"
b11100 `"
b11111111111111111111111111111111 -
b11111111111111111111111111111111 q
b11111111111111111111111111111111 2"
b11111111111111111111111111111111 m"
b11111 *"
b11010 -"
b11111 /"
b1111111000 0"
b11111 g"
b10011 v
b100 `
b100 f
b100 X"
b101 d
b101 h
b101 l
b1 .
b1 ("
b1 R"
b11100 ?
b11100 n
b11100 \"
b11000 *
b11000 o
b11000 >"
b11000 C"
b11000 d"
b11111111111111010000110100010011 G
b11111111111111010000110100010011 @"
b11111111111111010000110100010011 l"
b10011 >
b10011 p
b10011 ]"
b10100 F
b10100 r
b10100 1"
b10100 A"
b10100 <
b10100 s
b10100 a"
b10000 H
b10000 u
b10000 ="
b11001 P
b11001 }
b11001 +"
b11001 6"
b11100 M
b11100 %"
b11100 :"
b11010 O
b11010 &"
b11010 8"
b1000 J
b1000 j
b1000 ;"
b0 I
b0 <"
b0 W"
b0 Z"
b111000 L
b111000 9"
b111000 P"
b100 N
b100 7"
b100 J"
0U
b10 V
b10 k
b10 5"
b1111 Y
b1111 !"
b1111 #"
b1111 E"
b111110 W
b111110 y
b111110 ""
b11111111111111111111111111111111 ]
b11111111111111111111111111111111 z
b11111111111111111111111111111111 ~
b11111111111111111111111111111111 D"
b11111111111111111111111111111111 K"
b11111111111111111111111111111111 Q"
b11100 C
b11100 $"
b11100 H"
b11100 e"
b110 #
1!
#300
0!
#325
b111110 @
b111110 |
b111110 T"
b111110 V"
b11 _
b11 i
b11 {
b0 5
b0 3"
b0 h"
b11111111111111111111111111100111 6
b11111111111111111111111111100111 4"
b11111111111111111111111111100111 i"
b0 c
b0 w
b0 ,"
1;
19
b100000 +
b100000 b"
b100000 c"
b11111111111111111111111111111111 2
b11111111111111111111111111111111 O"
b11111111111111111111111111111111 U"
b11111111111111111111111111111111 j"
b11111111111111111111111111111111 p"
b0 .
b0 ("
b0 R"
b11111111111111111111111111111111 `
b11111111111111111111111111111111 f
b11111111111111111111111111111111 X"
b10 d
b10 h
b10 l
b0 -
b0 q
b0 2"
b0 m"
b0 *"
b11001 )"
b11011 -"
b0 /"
b11001 ."
b10 0"
b0 g"
b11001 f"
b11 v
b1101111000000110000110011 ,
b1101111000000110000110011 ?"
b1101111000000110000110011 B"
b100000 =
b100000 _"
b100000 `"
b1111 C
b1111 $"
b1111 H"
b1111 e"
b11111111111111111111111111111111 E
b11111111111111111111111111111111 G"
b11111111111111111111111111111111 n"
b11001 Y
b11001 !"
b11001 #"
b11001 E"
b100 W
b100 y
b100 ""
b10000 ]
b10000 z
b10000 ~
b10000 D"
b10000 K"
b10000 Q"
b11000 <
b11000 s
b11000 a"
b10100 H
b10100 u
b10100 ="
b11010 P
b11010 }
b11010 +"
b11010 6"
b11111 M
b11111 %"
b11111 :"
b1111111000 J
b1111111000 j
b1111111000 ;"
b11111111111111111111111111111111 I
b11111111111111111111111111111111 <"
b11111111111111111111111111111111 W"
b11111111111111111111111111111111 Z"
b111110 L
b111110 9"
b111110 P"
1U
b1 V
b1 k
b1 5"
b11001010110110000011 G
b11001010110110000011 @"
b11001010110110000011 l"
b11000 >
b11000 p
b11000 ]"
b11000 F
b11000 r
b11000 1"
b11000 A"
b100000 ?
b100000 n
b100000 \"
b11100 *
b11100 o
b11100 >"
b11100 C"
b11100 d"
b111 #
1!
#350
0!
#375
03
07
b100100 +
b100100 b"
b100100 c"
18
1'
b11111111111111111111111111100101 5
b11111111111111111111111111100101 3"
b11111111111111111111111111100101 h"
b0 c
b0 w
b0 ,"
0;
09
0b
b10000 _
b10000 i
b10000 {
b0 @
b0 |
b0 T"
b0 V"
b10000 a
b10000 g
b10000 N"
b0 6
b0 4"
b0 i"
b111111010000010001100011 ,
b111111010000010001100011 ?"
b111111010000010001100011 B"
b100100 =
b100100 _"
b100100 `"
b11011 *"
b11000 )"
b11000 -"
b11011 /"
b11000 ."
b0 0"
b11011 g"
b11000 f"
b110011 v
b0 `
b0 f
b0 X"
b1 /
b1 '"
b1 L"
b10000 2
b10000 O"
b10000 U"
b10000 j"
b10000 p"
b100100 ?
b100100 n
b100100 \"
b100000 *
b100000 o
b100000 >"
b100000 C"
b100000 d"
b1101111000000110000110011 G
b1101111000000110000110011 @"
b1101111000000110000110011 l"
b11100 >
b11100 p
b11100 ]"
b11100 F
b11100 r
b11100 1"
b11100 A"
b11100 <
b11100 s
b11100 a"
b11000 H
b11000 u
b11000 ="
b11011 P
b11011 }
b11011 +"
b11011 6"
b0 M
b0 %"
b0 :"
b11001 O
b11001 &"
b11001 8"
b10 J
b10 j
b10 ;"
b0 I
b0 <"
b0 W"
b0 Z"
b0 L
b0 9"
b0 P"
b11111111111111111111111111100111 N
b11111111111111111111111111100111 7"
b11111111111111111111111111100111 J"
b0 V
b0 k
b0 5"
1S
1Q
b11010 Y
b11010 !"
b11010 #"
b11010 E"
b111110 W
b111110 y
b111110 ""
b11 ]
b11 z
b11 ~
b11 D"
b11 K"
b11 Q"
b11001 C
b11001 $"
b11001 H"
b11001 e"
b10000 E
b10000 G"
b10000 n"
b1000 #
1!
#400
0!
#425
b10000 _
b10000 i
b10000 {
b0 a
b0 g
b0 N"
b10000 `
b10000 f
b10000 X"
b10000 @
b10000 |
b10000 T"
b10000 V"
b10 c
b10 w
b10 ,"
13
17
b11 2
b11 O"
b11 U"
b11 j"
b11 p"
b11101 4
b11101 x
b11101 F"
b10 .
b10 ("
b10 R"
b0 /
b0 '"
b0 L"
08
0'
b11010 C
b11010 $"
b11010 H"
b11010 e"
b11 E
b11 G"
b11 n"
b11011 Y
b11011 !"
b11011 #"
b11011 E"
b0 W
b0 y
b0 ""
b10000 ]
b10000 z
b10000 ~
b10000 D"
b10000 K"
b10000 Q"
1\
1Z
b100000 <
b100000 s
b100000 a"
b11100 H
b11100 u
b11100 ="
b11000 P
b11000 }
b11000 +"
b11000 6"
b11011 M
b11011 %"
b11011 :"
b11000 O
b11000 &"
b11000 8"
b0 J
b0 j
b0 ;"
b11111111111111111111111111100101 L
b11111111111111111111111111100101 9"
b11111111111111111111111111100101 P"
b0 N
b0 7"
b0 J"
0U
0S
0Q
0K
b1001 #
1!
#450
0!
#475
b11101 _
b11101 i
b11101 {
b11101 `
b11101 f
b11101 X"
10
1^"
b11101 @
b11101 |
b11101 T"
b11101 V"
b101000 +
b101000 b"
b101000 c"
b11 6
b11 4"
b11 i"
b11 c
b11 w
b11 ,"
1^
03
b11111111111111111111111111111111 5
b11111111111111111111111111111111 3"
b11111111111111111111111111111111 h"
b11111110000000000000011011100011 ,
b11111110000000000000011011100011 ?"
b11111110000000000000011011100011 B"
b101000 =
b101000 _"
b101000 `"
b1000 -
b1000 q
b1000 2"
b1000 m"
b1111 *"
b11010 )"
b1000 -"
b1111 /"
b11010 ."
b1111 g"
b11010 f"
b1100011 v
b0 4
b0 x
b0 F"
b1 .
b1 ("
b1 R"
b11101 2
b11101 O"
b11101 U"
b11101 j"
b11101 p"
b101000 ?
b101000 n
b101000 \"
b100100 *
b100100 o
b100100 >"
b100100 C"
b100100 d"
b111111010000010001100011 G
b111111010000010001100011 @"
b111111010000010001100011 l"
b101000 >
b101000 p
b101000 ]"
b100000 F
b100000 r
b100000 1"
b100000 A"
b10 V
b10 k
b10 5"
1K
b11000 Y
b11000 !"
b11000 #"
b11000 E"
b10000 W
b10000 y
b10000 ""
0\
0Z
0X
b11011 C
b11011 $"
b11011 H"
b11011 e"
b11101 B
b11101 I"
b11101 o"
b10000 E
b10000 G"
b10000 n"
1D
b1010 #
1!
#500
0!
#525
b11111111111111111111111111111111 `
b11111111111111111111111111111111 f
b11111111111111111111111111111111 X"
b11111111111111111111111111111111 @
b11111111111111111111111111111111 |
b11111111111111111111111111111111 T"
b11111111111111111111111111111111 V"
0^"
b11 a
b11 g
b11 N"
b100 _
b100 i
b100 {
b0 5
b0 3"
b0 h"
b0 6
b0 4"
b0 i"
b0 c
b0 w
b0 ,"
0^
b100100 +
b100100 b"
b100100 c"
b10000 2
b10000 O"
b10000 U"
b10000 j"
b10000 p"
b0 .
b0 ("
b0 R"
b110 d
b110 h
b110 l
1)
b0 -
b0 q
b0 2"
b0 m"
b0 *"
b0 )"
b0 -"
b0 /"
b0 ."
b0 g"
b0 f"
b0 v
b101100 =
b101100 _"
b101100 `"
b1100000000010111000100011 ,
b1100000000010111000100011 ?"
b1100000000010111000100011 B"
b11000 C
b11000 $"
b11000 H"
b11000 e"
b0 B
b0 I"
b0 o"
0D
0A
b11101 W
b11101 y
b11101 ""
b11101 ]
b11101 z
b11101 ~
b11101 D"
b11101 K"
b11101 Q"
1X
b100100 <
b100100 s
b100100 a"
b100000 H
b100000 u
b100000 ="
b1000 P
b1000 }
b1000 +"
b1000 6"
b1111 M
b1111 %"
b1111 :"
b11010 O
b11010 &"
b11010 8"
b1000 I
b1000 <"
b1000 W"
b1000 Z"
b11111111111111111111111111111111 L
b11111111111111111111111111111111 9"
b11111111111111111111111111111111 P"
b11 N
b11 7"
b11 J"
b11 V
b11 k
b11 5"
1T
0K
b0 G
b0 @"
b0 l"
b0 >
b0 p
b0 ]"
b0 F
b0 r
b0 1"
b0 A"
b101100 ?
b101100 n
b101100 \"
b101000 *
b101000 o
b101000 >"
b101000 C"
b101000 d"
b1011 #
1!
#550
0!
#575
b0 `
b0 f
b0 X"
b0 @
b0 |
b0 T"
b0 V"
b0 a
b0 g
b0 N"
b0 _
b0 i
b0 {
b11111110000000000000011011100011 ,
b11111110000000000000011011100011 ?"
b11111110000000000000011011100011 B"
b101000 =
b101000 _"
b101000 `"
b101000 +
b101000 b"
b101000 c"
b10 d
b10 h
b10 l
b11101 2
b11101 O"
b11101 U"
b11101 j"
b11101 p"
0)
00
b101000 ?
b101000 n
b101000 \"
b100100 *
b100100 o
b100100 >"
b100100 C"
b100100 d"
b100 <
b100 s
b100 a"
b0 H
b0 u
b0 ="
b0 P
b0 }
b0 +"
b0 6"
b0 M
b0 %"
b0 :"
b0 O
b0 &"
b0 8"
b0 I
b0 <"
b0 W"
b0 Z"
b0 L
b0 9"
b0 P"
b0 N
b0 7"
b0 J"
b0 V
b0 k
b0 5"
0T
b1000 Y
b1000 !"
b1000 #"
b1000 E"
b11111111111111111111111111111111 W
b11111111111111111111111111111111 y
b11111111111111111111111111111111 ""
b100 ]
b100 z
b100 ~
b100 D"
b100 K"
b100 Q"
0X
b11101 E
b11101 G"
b11101 n"
1A
b10 q"
b1100 #
1!
#600
0!
#625
10
1^"
b11 c
b11 w
b11 ,"
1^
b10000 +
b10000 b"
b10000 c"
b100 2
b100 O"
b100 U"
b100 j"
b100 p"
b11111111111111111111111111101100 -
b11111111111111111111111111101100 q
b11111111111111111111111111101100 2"
b11111111111111111111111111101100 m"
b1101 -"
b1111111000 0"
b1100011 v
b1100000000010111000100011 ,
b1100000000010111000100011 ?"
b1100000000010111000100011 B"
b10000 =
b10000 _"
b10000 `"
b1000 C
b1000 $"
b1000 H"
b1000 e"
b100 E
b100 G"
b100 n"
0A
b0 Y
b0 !"
b0 #"
b0 E"
b0 W
b0 y
b0 ""
b0 ]
b0 z
b0 ~
b0 D"
b0 K"
b0 Q"
b11111110000000000000011011100011 G
b11111110000000000000011011100011 @"
b11111110000000000000011011100011 l"
b10000 >
b10000 p
b10000 ]"
b100100 F
b100100 r
b100100 1"
b100100 A"
b101100 ?
b101100 n
b101100 \"
b101000 *
b101000 o
b101000 >"
b101000 C"
b101000 d"
b1101 #
1!
#650
0!
