hw4/lab2/log/waveform_1.vcd
$date
	Tue Nov 21 09:25:11 2023
$end
$version
	Icarus Verilog
$end
$timescale
	1s
$end
$scope module TestBench $end
$var reg 1 ! Clk $end
$var reg 1 " Reset $end
$var integer 32 # counter [31:0] $end
$var integer 32 $ flush [31:0] $end
$var integer 32 % i [31:0] $end
$var integer 32 & outfile [31:0] $end
$var integer 32 ' stall [31:0] $end
$scope module CPU $end
$var wire 1 ! clk_i $end
$var wire 1 " rst_i $end
$var wire 1 ( stall $end
$var wire 32 ) pc_o [31:0] $end
$var wire 32 * pc_normal_i [31:0] $end
$var wire 32 + pc_i [31:0] $end
$var wire 32 , pc_branch_i [31:0] $end
$var wire 32 - instr_o [31:0] $end
$var wire 32 . immed [31:0] $end
$var wire 2 / forward_B [1:0] $end
$var wire 2 0 forward_A [1:0] $end
$var wire 32 1 WBData [31:0] $end
$var wire 1 2 RegWrite $end
$var wire 32 3 ReadData_o [31:0] $end
$var wire 32 4 RS2data [31:0] $end
$var wire 32 5 RS1data [31:0] $end
$var wire 1 6 PCWrite $end
$var wire 1 7 NoOp $end
$var wire 1 8 MemtoReg $end
$var wire 1 9 MemWrite $end
$var wire 1 : MemRead $end
$var wire 32 ; MUXC_Src1 [31:0] $end
$var wire 1 < MEMWB_RegWrite $end
$var wire 32 = MEMWB_ReadData [31:0] $end
$var wire 5 > MEMWB_RDaddr [4:0] $end
$var wire 1 ? MEMWB_MemtoReg $end
$var wire 32 @ MEMWB_ALUout [31:0] $end
$var wire 32 A IFID_pc_o [31:0] $end
$var wire 32 B IFID_instr [31:0] $end
$var wire 1 C ID_FlushIF $end
$var wire 32 D IDEX_immed [31:0] $end
$var wire 10 E IDEX_fun10 [9:0] $end
$var wire 1 F IDEX_RegWrite $end
$var wire 32 G IDEX_RS2data [31:0] $end
$var wire 5 H IDEX_RS2addr [4:0] $end
$var wire 32 I IDEX_RS1data [31:0] $end
$var wire 5 J IDEX_RS1addr [4:0] $end
$var wire 5 K IDEX_RDaddr [4:0] $end
$var wire 1 L IDEX_MemtoReg $end
$var wire 1 M IDEX_MemWrite $end
$var wire 1 N IDEX_MemRead $end
$var wire 1 O IDEX_ALUSrc $end
$var wire 2 P IDEX_ALUOp [1:0] $end
$var wire 32 Q EXMEM_WriteData [31:0] $end
$var wire 1 R EXMEM_RegWrite $end
$var wire 5 S EXMEM_RDaddr [4:0] $end
$var wire 1 T EXMEM_MemtoReg $end
$var wire 1 U EXMEM_MemWrite $end
$var wire 1 V EXMEM_MemRead $end
$var wire 32 W EXMEM_ALUout [31:0] $end
$var wire 1 X Branch $end
$var wire 32 Y ALUout [31:0] $end
$var wire 32 Z ALUSrc2 [31:0] $end
$var wire 32 [ ALUSrc1 [31:0] $end
$var wire 1 \ ALUSrc $end
$var wire 2 ] ALUOp [1:0] $end
$var wire 3 ^ ALUCtl [2:0] $end
$scope module ALU $end
$var wire 32 _ b [31:0] $end
$var wire 32 ` a [31:0] $end
$var wire 3 a ALUCtl [2:0] $end
$var reg 32 b out [31:0] $end
$upscope $end
$scope module ALU_Control $end
$var wire 10 c I [9:0] $end
$var wire 2 d ALUOp [1:0] $end
$var reg 3 e ALUCtl [2:0] $end
$upscope $end
$scope module Add_PC1 $end
$var wire 32 f b [31:0] $end
$var wire 32 g sum [31:0] $end
$var wire 32 h a [31:0] $end
$upscope $end
$scope module Add_PC2 $end
$var wire 32 i sum [31:0] $end
$var wire 32 j b [31:0] $end
$var wire 32 k a [31:0] $end
$upscope $end
$scope module Control $end
$var wire 7 l opcode [6:0] $end
$var wire 1 7 NoOp $end
$var reg 2 m ALUOp [1:0] $end
$var reg 1 \ ALUSrc $end
$var reg 1 X Branch_o $end
$var reg 1 : MemRead $end
$var reg 1 9 MemWrite $end
$var reg 1 8 MemtoReg $end
$var reg 1 2 RegWrite $end
$upscope $end
$scope module Data_Memory $end
$var wire 1 ! clk_i $end
$var wire 32 n data_o [31:0] $end
$var wire 32 o data_i [31:0] $end
$var wire 32 p addr_i [31:0] $end
$var wire 1 U MemWrite_i $end
$var wire 1 V MemRead_i $end
$upscope $end
$scope module EXMEM $end
$var wire 32 q MemAddr_i [31:0] $end
$var wire 1 ! clk_i $end
$var wire 1 " rst_i $end
$var wire 32 r WriteData_i [31:0] $end
$var wire 1 F RegWrite_i $end
$var wire 5 s RDaddr_i [4:0] $end
$var wire 1 L MemtoReg_i $end
$var wire 1 M MemWrite_i $end
$var wire 1 N MemRead_i $end
$var reg 32 t MemAddr_o [31:0] $end
$var reg 1 V MemRead_o $end
$var reg 1 U MemWrite_o $end
$var reg 1 T MemtoReg_o $end
$var reg 5 u RDaddr_o [4:0] $end
$var reg 1 R RegWrite_o $end
$var reg 32 v WriteData_o [31:0] $end
$upscope $end
$scope module Flush $end
$var wire 1 X Branch $end
$var wire 32 w RS2 [31:0] $end
$var wire 32 x RS1 [31:0] $end
$var reg 1 C flush $end
$upscope $end
$scope module Forwarding $end
$var wire 5 y EXMEM_RD [4:0] $end
$var wire 1 R EXMEM_RegWrite $end
$var wire 1 < MEMWB_RegWrite $end
$var wire 5 z MEMWB_RD [4:0] $end
$var wire 5 { IDEX_RS2 [4:0] $end
$var wire 5 | IDEX_RS1 [4:0] $end
$var reg 2 } A [1:0] $end
$var reg 2 ~ B [1:0] $end
$upscope $end
$scope module Hazard_Detection $end
$var wire 5 !" RS1 [4:0] $end
$var wire 5 "" RS2 [4:0] $end
$var wire 5 #" RD [4:0] $end
$var wire 1 N MemRead $end
$var reg 1 7 NoOp $end
$var reg 1 6 PCWrite $end
$var reg 1 ( Stall_o $end
$upscope $end
$scope module IDEX $end
$var wire 2 $" ALUOp_i [1:0] $end
$var wire 1 \ ALUSrc_i $end
$var wire 1 : MemRead_i $end
$var wire 1 9 MemWrite_i $end
$var wire 1 8 MemtoReg_i $end
$var wire 5 %" RDaddr_i [4:0] $end
$var wire 5 &" RS1addr_i [4:0] $end
$var wire 5 '" RS2addr_i [4:0] $end
$var wire 1 2 RegWrite_i $end
$var wire 1 ! clk_i $end
$var wire 10 (" fun10_i [9:0] $end
$var wire 1 " rst_i $end
$var wire 32 )" immed_i [31:0] $end
$var wire 32 *" RS2_i [31:0] $end
$var wire 32 +" RS1_i [31:0] $end
$var reg 2 ," ALUOp_o [1:0] $end
$var reg 1 O ALUSrc_o $end
$var reg 1 N MemRead_o $end
$var reg 1 M MemWrite_o $end
$var reg 1 L MemtoReg_o $end
$var reg 5 -" RDaddr_o [4:0] $end
$var reg 32 ." RS1_o [31:0] $end
$var reg 5 /" RS1addr_o [4:0] $end
$var reg 32 0" RS2_o [31:0] $end
$var reg 5 1" RS2addr_o [4:0] $end
$var reg 1 F RegWrite_o $end
$var reg 10 2" fun10_o [9:0] $end
$var reg 32 3" immed_o [31:0] $end
$upscope $end
$scope module IFID $end
$var wire 1 ! clk_i $end
$var wire 1 C flush $end
$var wire 1 " rst_i $end
$var wire 1 ( stall $end
$var wire 32 4" pc_i [31:0] $end
$var wire 32 5" instr_i [31:0] $end
$var reg 32 6" instr_o [31:0] $end
$var reg 32 7" pc_o [31:0] $end
$upscope $end
$scope module Instruction_Memory $end
$var wire 32 8" instr_o [31:0] $end
$var wire 32 9" addr_i [31:0] $end
$upscope $end
$scope module MEMWB $end
$var wire 32 :" ALUout_i [31:0] $end
$var wire 1 T MemtoReg_i $end
$var wire 5 ;" RDaddr_i [4:0] $end
$var wire 32 <" ReadData_i [31:0] $end
$var wire 1 R RegWrite_i $end
$var wire 1 ! clk_i $end
$var wire 1 " rst_i $end
$var reg 32 =" ALUout_o [31:0] $end
$var reg 1 ? MemtoReg_o $end
$var reg 5 >" RDaddr_o [4:0] $end
$var reg 32 ?" ReadData_o [31:0] $end
$var reg 1 < RegWrite_o $end
$upscope $end
$scope module MUXA $end
$var wire 32 @" a [31:0] $end
$var wire 32 A" c [31:0] $end
$var wire 2 B" ctl [1:0] $end
$var wire 32 C" d [31:0] $end
$var wire 32 D" out [31:0] $end
$var wire 32 E" b [31:0] $end
$upscope $end
$scope module MUXB $end
$var wire 32 F" a [31:0] $end
$var wire 32 G" c [31:0] $end
$var wire 2 H" ctl [1:0] $end
$var wire 32 I" d [31:0] $end
$var wire 32 J" out [31:0] $end
$var wire 32 K" b [31:0] $end
$upscope $end
$scope module MUXC $end
$var wire 32 L" a [31:0] $end
$var wire 32 M" b [31:0] $end
$var wire 1 O ctl $end
$var wire 32 N" out [31:0] $end
$upscope $end
$scope module MUX_PC $end
$var wire 32 O" a [31:0] $end
$var wire 32 P" b [31:0] $end
$var wire 1 C ctl $end
$var wire 32 Q" out [31:0] $end
$upscope $end
$scope module PC $end
$var wire 1 6 PCWrite_i $end
$var wire 1 ! clk_i $end
$var wire 32 R" pc_i [31:0] $end
$var wire 1 " rst_i $end
$var reg 32 S" pc_o [31:0] $end
$upscope $end
$scope module Registers $end
$var wire 5 T" RDaddr_i [4:0] $end
$var wire 5 U" RS1addr_i [4:0] $end
$var wire 5 V" RS2addr_i [4:0] $end
$var wire 1 < RegWrite_i $end
$var wire 1 ! clk_i $end
$var wire 1 " rst_i $end
$var wire 32 W" RS2data_o [31:0] $end
$var wire 32 X" RS1data_o [31:0] $end
$var wire 32 Y" RDdata_i [31:0] $end
$var integer 32 Z" i [31:0] $end
$upscope $end
$scope module Sign_Extend $end
$var wire 32 [" instr [31:0] $end
$var reg 32 \" immed [31:0] $end
$upscope $end
$scope module WBSrc $end
$var wire 32 ]" a [31:0] $end
$var wire 32 ^" b [31:0] $end
$var wire 1 ? ctl $end
$var wire 32 _" out [31:0] $end
$upscope $end
$upscope $end
$upscope $end
$enddefinitions $end
#0
$dumpvars
b0 _"
b0 ^"
b0 ]"
b0 \"
b0 ["
bx Z"
b0 Y"
bx X"
bx W"
b0 V"
b0 U"
b0 T"
bx S"
bx R"
bx Q"
b0 P"
bx O"
b0 N"
b0 M"
b0 L"
b0 K"
b0 J"
b0 I"
b0 H"
b0 G"
b0 F"
b0 E"
b0 D"
b0 C"
b0 B"
b0 A"
b0 @"
b0 ?"
b0 >"
b0 ="
b0 <"
b0 ;"
b0 :"
bx 9"
bx 8"
b0 7"
b0 6"
bx 5"
bx 4"
b0 3"
b0 2"
b0 1"
b0 0"
b0 /"
b0 ."
b0 -"
b0 ,"
bx +"
bx *"
b0 )"
b0 ("
b0 '"
b0 &"
b0 %"
b0 $"
b0 #"
b0 ""
b0 !"
b0 ~
b0 }
b0 |
b0 {
b0 z
b0 y
bx x
bx w
b0 v
b0 u
b0 t
b0 s
b0 r
b0 q
b0 p
b0 o
b0 n
b0 m
b0 l
b0 k
b0 j
b0 i
bx h
bx g
b100 f
b10 e
b0 d
b0 c
b0 b
b10 a
b0 `
b0 _
b10 ^
b0 ]
0\
b0 [
b0 Z
b0 Y
0X
b0 W
0V
0U
0T
b0 S
0R
b0 Q
b0 P
0O
0N
0M
0L
b0 K
b0 J
b0 I
b0 H
b0 G
0F
b0 E
b0 D
0C
b0 B
b0 A
b0 @
0?
b0 >
b0 =
0<
b0 ;
0:
09
08
07
16
bx 5
bx 4
b0 3
02
b0 1
b0 0
b0 /
b0 .
bx -
b0 ,
bx +
bx *
bx )
0(
b0 '
b11 &
b100000 %
b0 $
b0 #
1"
0!
$end
#6
b101000000000001000010011 -
b101000000000001000010011 5"
b101000000000001000010011 8"
b100 +
b100 Q"
b100 R"
b0 5
b0 x
b0 +"
b0 X"
b0 4
b0 w
b0 *"
b0 W"
b100 *
b100 g
b100 O"
b0 )
b0 h
b0 4"
b0 9"
b0 S"
b0 B
b0 6"
b0 ["
b0 ,
b0 i
b0 P"
b0 A
b0 k
b0 7"
b100000 Z"
0"
#12
1"
#25
b1 ]
b1 m
b1 $"
12
1\
b1010 ,
b1010 i
b1010 P"
b1010 .
b1010 j
b1010 )"
b1010 \"
b1010 ""
b100 %"
b1010 '"
b1010 V"
b10011 l
b110000000000001010010011 -
b110000000000001010010011 5"
b110000000000001010010011 8"
b1000 +
b1000 Q"
b1000 R"
b101000000000001000010011 B
b101000000000001000010011 6"
b101000000000001000010011 ["
b1000 *
b1000 g
b1000 O"
b100 )
b100 h
b100 4"
b100 9"
b100 S"
b1 #
1!
#50
0!
#75
b1010 Y
b1010 b
b1010 q
b11111111001100000000001100010011 -
b11111111001100000000001100010011 5"
b11111111001100000000001100010011 8"
b1100 +
b1100 Q"
b1100 R"
b1100 .
b1100 j
b1100 )"
b1100 \"
b1100 ""
b101 %"
b1100 '"
b1100 V"
b1010 Z
b1010 _
b1010 N"
b1100 *
b1100 g
b1100 O"
b1000 )
b1000 h
b1000 4"
b1000 9"
b1000 S"
b110000000000001010010011 B
b110000000000001010010011 6"
b110000000000001010010011 ["
b10000 ,
b10000 i
b10000 P"
b100 A
b100 k
b100 7"
b100 K
b100 s
b100 #"
b100 -"
b1010 H
b1010 {
b1010 1"
b1010 D
b1010 3"
b1010 M"
1O
b1 P
b1 d
b1 ,"
1F
b10 #
1!
#100
0!
#125
b1100 Y
b1100 b
b1100 q
b1100 Z
b1100 _
b1100 N"
b11111111111111111111111111110011 .
b11111111111111111111111111110011 j
b11111111111111111111111111110011 )"
b11111111111111111111111111110011 \"
b10011 ""
b110 %"
b10011 '"
b1111111000 ("
b10011 V"
b1000000000000001110010011 -
b1000000000000001110010011 5"
b1000000000000001110010011 8"
b10000 +
b10000 Q"
b10000 R"
b100 S
b100 u
b100 y
b100 ;"
b1010 W
b1010 p
b1010 t
b1010 :"
b1010 A"
b1010 G"
1R
b101 K
b101 s
b101 #"
b101 -"
b1100 H
b1100 {
b1100 1"
b1100 D
b1100 3"
b1100 M"
b11111111001100000000001100010011 B
b11111111001100000000001100010011 6"
b11111111001100000000001100010011 ["
b11111111111111111111111111111011 ,
b11111111111111111111111111111011 i
b11111111111111111111111111111011 P"
b1000 A
b1000 k
b1000 7"
b10000 *
b10000 g
b10000 O"
b1100 )
b1100 h
b1100 4"
b1100 9"
b1100 S"
b11 #
1!
#150
0!
#175
b11111111111111111111111111110011 Y
b11111111111111111111111111110011 b
b11111111111111111111111111110011 q
b10010000000011 -
b10010000000011 5"
b10010000000011 8"
b10100 +
b10100 Q"
b10100 R"
b10000 .
b10000 j
b10000 )"
b10000 \"
b10000 ""
b111 %"
b10000 '"
b0 ("
b10000 V"
b11111111111111111111111111110011 Z
b11111111111111111111111111110011 _
b11111111111111111111111111110011 N"
b1010 1
b1010 E"
b1010 K"
b1010 Y"
b1010 _"
b10100 *
b10100 g
b10100 O"
b10000 )
b10000 h
b10000 4"
b10000 9"
b10000 S"
b1000000000000001110010011 B
b1000000000000001110010011 6"
b1000000000000001110010011 ["
b11100 ,
b11100 i
b11100 P"
b1100 A
b1100 k
b1100 7"
b110 K
b110 s
b110 #"
b110 -"
b10011 H
b10011 {
b10011 1"
b1111111000 E
b1111111000 c
b1111111000 2"
b11111111111111111111111111110011 D
b11111111111111111111111111110011 3"
b11111111111111111111111111110011 M"
b101 S
b101 u
b101 y
b101 ;"
b1100 W
b1100 p
b1100 t
b1100 :"
b1100 A"
b1100 G"
b100 >
b100 z
b100 >"
b100 T"
b1010 @
b1010 ="
b1010 ]"
1<
b100 #
1!
#200
0!
#225
b10000 Y
b10000 b
b10000 q
b0 ]
b0 m
b0 $"
1:
18
b1100 1
b1100 E"
b1100 K"
b1100 Y"
b1100 _"
b10000 Z
b10000 _
b10000 N"
b0 .
b0 j
b0 )"
b0 \"
b0 ""
b1000 %"
b0 '"
b10 ("
b0 V"
b11 l
b10000000010010010000011 -
b10000000010010010000011 5"
b10000000010010010000011 8"
b11000 +
b11000 Q"
b11000 R"
b101 >
b101 z
b101 >"
b101 T"
b1100 @
b1100 ="
b1100 ]"
b110 S
b110 u
b110 y
b110 ;"
b11111111111111111111111111110011 W
b11111111111111111111111111110011 p
b11111111111111111111111111110011 t
b11111111111111111111111111110011 :"
b11111111111111111111111111110011 A"
b11111111111111111111111111110011 G"
b111 K
b111 s
b111 #"
b111 -"
b10000 H
b10000 {
b10000 1"
b0 E
b0 c
b0 2"
b10000 D
b10000 3"
b10000 M"
b10010000000011 B
b10010000000011 6"
b10010000000011 ["
b10000 ,
b10000 i
b10000 P"
b10000 A
b10000 k
b10000 7"
b11000 *
b11000 g
b11000 O"
b10100 )
b10100 h
b10100 4"
b10100 9"
b10100 S"
b101 #
1!
#250
0!
#275
b1010 4
b1010 w
b1010 *"
b1010 W"
b0 Y
b0 b
b0 q
b100000000010010100000011 -
b100000000010010100000011 5"
b100000000010010100000011 8"
b11100 +
b11100 Q"
b11100 R"
b100 .
b100 j
b100 )"
b100 \"
b100 ""
b1001 %"
b100 '"
b100 V"
b0 Z
b0 _
b0 N"
b11111111111111111111111111110011 1
b11111111111111111111111111110011 E"
b11111111111111111111111111110011 K"
b11111111111111111111111111110011 Y"
b11111111111111111111111111110011 _"
b11100 *
b11100 g
b11100 O"
b11000 )
b11000 h
b11000 4"
b11000 9"
b11000 S"
b10000000010010010000011 B
b10000000010010010000011 6"
b10000000010010010000011 ["
b11000 ,
b11000 i
b11000 P"
b10100 A
b10100 k
b10100 7"
b1000 K
b1000 s
b1000 #"
b1000 -"
b0 H
b0 {
b0 1"
b10 E
b10 c
b10 2"
b0 D
b0 3"
b0 M"
b0 P
b0 d
b0 ,"
1N
1L
b111 S
b111 u
b111 y
b111 ;"
b10000 W
b10000 p
b10000 t
b10000 :"
b10000 A"
b10000 G"
b110 >
b110 z
b110 >"
b110 T"
b11111111111111111111111111110011 @
b11111111111111111111111111110011 ="
b11111111111111111111111111110011 ]"
b110 #
1!
#300
0!
#325
b100 Y
b100 b
b100 q
b1010 ;
b1010 r
b1010 J"
b1010 L"
b0 4
b0 w
b0 *"
b0 W"
b10000 1
b10000 E"
b10000 K"
b10000 Y"
b10000 _"
b101 3
b101 n
b101 <"
b100 Z
b100 _
b100 N"
b1000 .
b1000 j
b1000 )"
b1000 \"
b1000 ""
b1010 %"
b1000 '"
b1000 V"
b11000101010000000100011 -
b11000101010000000100011 5"
b11000101010000000100011 8"
b100000 +
b100000 Q"
b100000 R"
b111 >
b111 z
b111 >"
b111 T"
b10000 @
b10000 ="
b10000 ]"
b1000 S
b1000 u
b1000 y
b1000 ;"
b0 W
b0 p
b0 t
b0 :"
b0 A"
b0 G"
1V
1T
b1001 K
b1001 s
b1001 #"
b1001 -"
b100 H
b100 {
b100 1"
b100 D
b100 3"
b100 M"
b1010 G
b1010 0"
b1010 F"
b100000000010010100000011 B
b100000000010010100000011 6"
b100000000010010100000011 ["
b100000 ,
b100000 i
b100000 P"
b11000 A
b11000 k
b11000 7"
b100000 *
b100000 g
b100000 O"
b11100 )
b11100 h
b11100 4"
b11100 9"
b11100 S"
b111 #
1!
#350
0!
#375
b1100 5
b1100 x
b1100 +"
b1100 X"
19
0:
02
08
b1000 Y
b1000 b
b1000 q
b101 ;
b101 r
b101 J"
b101 L"
b110 3
b110 n
b110 <"
b11111111111111111111111111110011 4
b11111111111111111111111111110011 w
b11111111111111111111111111110011 *"
b11111111111111111111111111110011 W"
b11100111000000100000110011 -
b11100111000000100000110011 5"
b11100111000000100000110011 8"
b100100 +
b100100 Q"
b100100 R"
b0 .
b0 j
b0 )"
b0 \"
b110 ""
b101 !"
b0 %"
b110 '"
b101 &"
b110 V"
b101 U"
b100011 l
b1000 Z
b1000 _
b1000 N"
b1 /
b1 ~
b1 H"
b101 1
b101 E"
b101 K"
b101 Y"
b101 _"
b100100 *
b100100 g
b100100 O"
b100000 )
b100000 h
b100000 4"
b100000 9"
b100000 S"
b11000101010000000100011 B
b11000101010000000100011 6"
b11000101010000000100011 ["
b11100 ,
b11100 i
b11100 P"
b11100 A
b11100 k
b11100 7"
b1010 K
b1010 s
b1010 #"
b1010 -"
b1000 H
b1000 {
b1000 1"
b1000 D
b1000 3"
b1000 M"
b0 G
b0 0"
b0 F"
b1001 S
b1001 u
b1001 y
b1001 ;"
b1010 Q
b1010 o
b1010 v
b100 W
b100 p
b100 t
b100 :"
b100 A"
b100 G"
b1000 >
b1000 z
b1000 >"
b1000 T"
b101 =
b101 ?"
b101 ^"
b0 @
b0 ="
b0 ]"
1?
b1000 #
1!
#400
0!
#425
b11111111111111111111111111110011 ;
b11111111111111111111111111110011 r
b11111111111111111111111111110011 J"
b11111111111111111111111111110011 L"
b1010 3
b1010 n
b1010 <"
b1100 Y
b1100 b
b1100 q
b1100 [
b1100 `
b1100 D"
b11111111111111111111111111100111 4
b11111111111111111111111111100111 w
b11111111111111111111111111100111 *"
b11111111111111111111111111100111 W"
b11111111111111111111111111101000 5
b11111111111111111111111111101000 x
b11111111111111111111111111101000 +"
b11111111111111111111111111101000 X"
b10 ]
b10 m
b10 $"
09
12
0\
b110 1
b110 E"
b110 K"
b110 Y"
b110 _"
b0 /
b0 ~
b0 H"
b0 Z
b0 _
b0 N"
b11001 ""
b11000 !"
b10000 %"
b11001 '"
b11000 &"
b1000 ("
b11001 V"
b11000 U"
b110011 l
b11101111010000100010110011 -
b11101111010000100010110011 5"
b11101111010000100010110011 8"
b101000 +
b101000 Q"
b101000 R"
b1001 >
b1001 z
b1001 >"
b1001 T"
b110 =
b110 ?"
b110 ^"
b100 @
b100 ="
b100 ]"
b1010 S
b1010 u
b1010 y
b1010 ;"
b101 Q
b101 o
b101 v
b1000 W
b1000 p
b1000 t
b1000 :"
b1000 A"
b1000 G"
b0 K
b0 s
b0 #"
b0 -"
b110 H
b110 {
b110 1"
b101 J
b101 |
b101 /"
b0 D
b0 3"
b0 M"
b11111111111111111111111111110011 G
b11111111111111111111111111110011 0"
b11111111111111111111111111110011 F"
b1100 I
b1100 ."
b1100 @"
1M
0N
0L
0F
b11100111000000100000110011 B
b11100111000000100000110011 6"
b11100111000000100000110011 ["
b100000 ,
b100000 i
b100000 P"
b100000 A
b100000 k
b100000 7"
b101000 *
b101000 g
b101000 O"
b100100 )
b100100 h
b100100 4"
b100100 9"
b100100 S"
b1001 #
1!
#450
0!
#475
b11111111111111111111111111100101 4
b11111111111111111111111111100101 w
b11111111111111111111111111100101 *"
b11111111111111111111111111100101 W"
b11111111111111111111111111100110 5
b11111111111111111111111111100110 x
b11111111111111111111111111100110 +"
b11111111111111111111111111100110 X"
b11111111111111111111111111100111 ;
b11111111111111111111111111100111 r
b11111111111111111111111111100111 J"
b11111111111111111111111111100111 L"
b11111111111111111111111111101000 [
b11111111111111111111111111101000 `
b11111111111111111111111111101000 D"
b1001011000 Y
b1001011000 b
b1001011000 q
b11110111100000100100110011 -
b11110111100000100100110011 5"
b11110111100000100100110011 8"
b101100 +
b101100 Q"
b101100 R"
b11011 ""
b11010 !"
b10001 %"
b11011 '"
b11010 &"
b11011 V"
b11010 U"
b11111111111111111111111111100111 Z
b11111111111111111111111111100111 _
b11111111111111111111111111100111 N"
b101 ^
b101 a
b101 e
b0 3
b0 n
b0 <"
b1010 1
b1010 E"
b1010 K"
b1010 Y"
b1010 _"
b101100 *
b101100 g
b101100 O"
b101000 )
b101000 h
b101000 4"
b101000 9"
b101000 S"
b11101111010000100010110011 B
b11101111010000100010110011 6"
b11101111010000100010110011 ["
b100100 ,
b100100 i
b100100 P"
b100100 A
b100100 k
b100100 7"
b10000 K
b10000 s
b10000 #"
b10000 -"
b11001 H
b11001 {
b11001 1"
b11000 J
b11000 |
b11000 /"
b1000 E
b1000 c
b1000 2"
b11111111111111111111111111100111 G
b11111111111111111111111111100111 0"
b11111111111111111111111111100111 F"
b11111111111111111111111111101000 I
b11111111111111111111111111101000 ."
b11111111111111111111111111101000 @"
0O
b10 P
b10 d
b10 ,"
0M
1F
b0 S
b0 u
b0 y
b0 ;"
b11111111111111111111111111110011 Q
b11111111111111111111111111110011 o
b11111111111111111111111111110011 v
b1100 W
b1100 p
b1100 t
b1100 :"
b1100 A"
b1100 G"
1U
0V
0T
0R
b1010 >
b1010 z
b1010 >"
b1010 T"
b1010 =
b1010 ?"
b1010 ^"
b1000 @
b1000 ="
b1000 ]"
b1010 #
1!
#500
0!
#525
b11111111111111111111111111100101 Z
b11111111111111111111111111100101 _
b11111111111111111111111111100101 N"
b1010111110 Y
b1010111110 b
b1010111110 q
b11111111111111111111111111100101 ;
b11111111111111111111111111100101 r
b11111111111111111111111111100101 J"
b11111111111111111111111111100101 L"
b11111111111111111111111111100110 [
b11111111111111111111111111100110 `
b11111111111111111111111111100110 D"
b111010 4
b111010 w
b111010 *"
b111010 W"
b111000 5
b111000 x
b111000 +"
b111000 X"
b1100 1
b1100 E"
b1100 K"
b1100 Y"
b1100 _"
b11101 ""
b11100 !"
b10010 %"
b11101 '"
b11100 &"
b11101 V"
b11100 U"
b11111111110000100110110011 -
b11111111110000100110110011 5"
b11111111110000100110110011 8"
b110000 +
b110000 Q"
b110000 R"
b0 >
b0 z
b0 >"
b0 T"
b0 =
b0 ?"
b0 ^"
b1100 @
b1100 ="
b1100 ]"
0?
0<
b10000 S
b10000 u
b10000 y
b10000 ;"
b11111111111111111111111111100111 Q
b11111111111111111111111111100111 o
b11111111111111111111111111100111 v
b1001011000 W
b1001011000 p
b1001011000 t
b1001011000 :"
b1001011000 A"
b1001011000 G"
0U
1R
b10001 K
b10001 s
b10001 #"
b10001 -"
b11011 H
b11011 {
b11011 1"
b11010 J
b11010 |
b11010 /"
b11111111111111111111111111100101 G
b11111111111111111111111111100101 0"
b11111111111111111111111111100101 F"
b11111111111111111111111111100110 I
b11111111111111111111111111100110 ."
b11111111111111111111111111100110 @"
b11110111100000100100110011 B
b11110111100000100100110011 6"
b11110111100000100100110011 ["
b101000 ,
b101000 i
b101000 P"
b101000 A
b101000 k
b101000 7"
b110000 *
b110000 g
b110000 O"
b101100 )
b101100 h
b101100 4"
b101100 9"
b101100 S"
b1011 #
1!
#550
0!
#575
b111010 Z
b111010 _
b111010 N"
b110010110000 Y
b110010110000 b
b110010110000 q
b111110 4
b111110 w
b111110 *"
b111110 W"
b111100 5
b111100 x
b111100 +"
b111100 X"
b111010 ;
b111010 r
b111010 J"
b111010 L"
b111000 [
b111000 `
b111000 D"
b1000000111010000000100011 -
b1000000111010000000100011 5"
b1000000111010000000100011 8"
b110100 +
b110100 Q"
b110100 R"
b11111 ""
b11110 !"
b10011 %"
b11111 '"
b11110 &"
b11111 V"
b11110 U"
b1001011000 1
b1001011000 E"
b1001011000 K"
b1001011000 Y"
b1001011000 _"
b110100 *
b110100 g
b110100 O"
b110000 )
b110000 h
b110000 4"
b110000 9"
b110000 S"
b11111111110000100110110011 B
b11111111110000100110110011 6"
b11111111110000100110110011 ["
b101100 ,
b101100 i
b101100 P"
b101100 A
b101100 k
b101100 7"
b10010 K
b10010 s
b10010 #"
b10010 -"
b11101 H
b11101 {
b11101 1"
b11100 J
b11100 |
b11100 /"
b111010 G
b111010 0"
b111010 F"
b111000 I
b111000 ."
b111000 @"
b10001 S
b10001 u
b10001 y
b10001 ;"
b11111111111111111111111111100101 Q
b11111111111111111111111111100101 o
b11111111111111111111111111100101 v
b1010111110 W
b1010111110 p
b1010111110 t
b1010111110 :"
b1010111110 A"
b1010111110 G"
b10000 >
b10000 z
b10000 >"
b10000 T"
b1001011000 @
b1001011000 ="
b1001011000 ]"
1<
b1100 #
1!
#600
0!
#625
b111110 Z
b111110 _
b111110 N"
b111010001000 Y
b111010001000 b
b111010001000 q
b111110 ;
b111110 r
b111110 J"
b111110 L"
b111100 [
b111100 `
b111100 D"
b1001011000 4
b1001011000 w
b1001011000 *"
b1001011000 W"
b10000 5
b10000 x
b10000 +"
b10000 X"
b0 ]
b0 m
b0 $"
19
02
1\
b1010111110 1
b1010111110 E"
b1010111110 K"
b1010111110 Y"
b1010111110 _"
b10000 ""
b111 !"
b0 %"
b10000 '"
b111 &"
b10 ("
b10000 V"
b111 U"
b100011 l
b1000100000010001000100011 -
b1000100000010001000100011 5"
b1000100000010001000100011 8"
b111000 +
b111000 Q"
b111000 R"
b10001 >
b10001 z
b10001 >"
b10001 T"
b1010111110 @
b1010111110 ="
b1010111110 ]"
b10010 S
b10010 u
b10010 y
b10010 ;"
b111010 Q
b111010 o
b111010 v
b110010110000 W
b110010110000 p
b110010110000 t
b110010110000 :"
b110010110000 A"
b110010110000 G"
b10011 K
b10011 s
b10011 #"
b10011 -"
b11111 H
b11111 {
b11111 1"
b11110 J
b11110 |
b11110 /"
b111110 G
b111110 0"
b111110 F"
b111100 I
b111100 ."
b111100 @"
b1000000111010000000100011 B
b1000000111010000000100011 6"
b1000000111010000000100011 ["
b110000 ,
b110000 i
b110000 P"
b110000 A
b110000 k
b110000 7"
b111000 *
b111000 g
b111000 O"
b110100 )
b110100 h
b110100 4"
b110100 9"
b110100 S"
b1101 #
1!
#650
0!
