hw4/lab2/log/waveform_4.vcd
$date
	Tue Nov 21 09:25:11 2023
$end
$version
	Icarus Verilog
$end
$timescale
	1s
$end
$scope module TestBench $end
$var reg 1 ! Clk $end
$var reg 1 " Reset $end
$var integer 32 # counter [31:0] $end
$var integer 32 $ flush [31:0] $end
$var integer 32 % i [31:0] $end
$var integer 32 & outfile [31:0] $end
$var integer 32 ' stall [31:0] $end
$scope module CPU $end
$var wire 1 ! clk_i $end
$var wire 1 " rst_i $end
$var wire 1 ( stall $end
$var wire 32 ) pc_o [31:0] $end
$var wire 32 * pc_normal_i [31:0] $end
$var wire 32 + pc_i [31:0] $end
$var wire 32 , pc_branch_i [31:0] $end
$var wire 32 - instr_o [31:0] $end
$var wire 32 . immed [31:0] $end
$var wire 2 / forward_B [1:0] $end
$var wire 2 0 forward_A [1:0] $end
$var wire 32 1 WBData [31:0] $end
$var wire 1 2 RegWrite $end
$var wire 32 3 ReadData_o [31:0] $end
$var wire 32 4 RS2data [31:0] $end
$var wire 32 5 RS1data [31:0] $end
$var wire 1 6 PCWrite $end
$var wire 1 7 NoOp $end
$var wire 1 8 MemtoReg $end
$var wire 1 9 MemWrite $end
$var wire 1 : MemRead $end
$var wire 32 ; MUXC_Src1 [31:0] $end
$var wire 1 < MEMWB_RegWrite $end
$var wire 32 = MEMWB_ReadData [31:0] $end
$var wire 5 > MEMWB_RDaddr [4:0] $end
$var wire 1 ? MEMWB_MemtoReg $end
$var wire 32 @ MEMWB_ALUout [31:0] $end
$var wire 32 A IFID_pc_o [31:0] $end
$var wire 32 B IFID_instr [31:0] $end
$var wire 1 C ID_FlushIF $end
$var wire 32 D IDEX_immed [31:0] $end
$var wire 10 E IDEX_fun10 [9:0] $end
$var wire 1 F IDEX_RegWrite $end
$var wire 32 G IDEX_RS2data [31:0] $end
$var wire 5 H IDEX_RS2addr [4:0] $end
$var wire 32 I IDEX_RS1data [31:0] $end
$var wire 5 J IDEX_RS1addr [4:0] $end
$var wire 5 K IDEX_RDaddr [4:0] $end
$var wire 1 L IDEX_MemtoReg $end
$var wire 1 M IDEX_MemWrite $end
$var wire 1 N IDEX_MemRead $end
$var wire 1 O IDEX_ALUSrc $end
$var wire 2 P IDEX_ALUOp [1:0] $end
$var wire 32 Q EXMEM_WriteData [31:0] $end
$var wire 1 R EXMEM_RegWrite $end
$var wire 5 S EXMEM_RDaddr [4:0] $end
$var wire 1 T EXMEM_MemtoReg $end
$var wire 1 U EXMEM_MemWrite $end
$var wire 1 V EXMEM_MemRead $end
$var wire 32 W EXMEM_ALUout [31:0] $end
$var wire 1 X Branch $end
$var wire 32 Y ALUout [31:0] $end
$var wire 32 Z ALUSrc2 [31:0] $end
$var wire 32 [ ALUSrc1 [31:0] $end
$var wire 1 \ ALUSrc $end
$var wire 2 ] ALUOp [1:0] $end
$var wire 3 ^ ALUCtl [2:0] $end
$scope module ALU $end
$var wire 32 _ b [31:0] $end
$var wire 32 ` a [31:0] $end
$var wire 3 a ALUCtl [2:0] $end
$var reg 32 b out [31:0] $end
$upscope $end
$scope module ALU_Control $end
$var wire 10 c I [9:0] $end
$var wire 2 d ALUOp [1:0] $end
$var reg 3 e ALUCtl [2:0] $end
$upscope $end
$scope module Add_PC1 $end
$var wire 32 f b [31:0] $end
$var wire 32 g sum [31:0] $end
$var wire 32 h a [31:0] $end
$upscope $end
$scope module Add_PC2 $end
$var wire 32 i sum [31:0] $end
$var wire 32 j b [31:0] $end
$var wire 32 k a [31:0] $end
$upscope $end
$scope module Control $end
$var wire 7 l opcode [6:0] $end
$var wire 1 7 NoOp $end
$var reg 2 m ALUOp [1:0] $end
$var reg 1 \ ALUSrc $end
$var reg 1 X Branch_o $end
$var reg 1 : MemRead $end
$var reg 1 9 MemWrite $end
$var reg 1 8 MemtoReg $end
$var reg 1 2 RegWrite $end
$upscope $end
$scope module Data_Memory $end
$var wire 1 ! clk_i $end
$var wire 32 n data_o [31:0] $end
$var wire 32 o data_i [31:0] $end
$var wire 32 p addr_i [31:0] $end
$var wire 1 U MemWrite_i $end
$var wire 1 V MemRead_i $end
$upscope $end
$scope module EXMEM $end
$var wire 32 q MemAddr_i [31:0] $end
$var wire 1 ! clk_i $end
$var wire 1 " rst_i $end
$var wire 32 r WriteData_i [31:0] $end
$var wire 1 F RegWrite_i $end
$var wire 5 s RDaddr_i [4:0] $end
$var wire 1 L MemtoReg_i $end
$var wire 1 M MemWrite_i $end
$var wire 1 N MemRead_i $end
$var reg 32 t MemAddr_o [31:0] $end
$var reg 1 V MemRead_o $end
$var reg 1 U MemWrite_o $end
$var reg 1 T MemtoReg_o $end
$var reg 5 u RDaddr_o [4:0] $end
$var reg 1 R RegWrite_o $end
$var reg 32 v WriteData_o [31:0] $end
$upscope $end
$scope module Flush $end
$var wire 1 X Branch $end
$var wire 32 w RS2 [31:0] $end
$var wire 32 x RS1 [31:0] $end
$var reg 1 C flush $end
$upscope $end
$scope module Forwarding $end
$var wire 5 y EXMEM_RD [4:0] $end
$var wire 1 R EXMEM_RegWrite $end
$var wire 1 < MEMWB_RegWrite $end
$var wire 5 z MEMWB_RD [4:0] $end
$var wire 5 { IDEX_RS2 [4:0] $end
$var wire 5 | IDEX_RS1 [4:0] $end
$var reg 2 } A [1:0] $end
$var reg 2 ~ B [1:0] $end
$upscope $end
$scope module Hazard_Detection $end
$var wire 5 !" RS1 [4:0] $end
$var wire 5 "" RS2 [4:0] $end
$var wire 5 #" RD [4:0] $end
$var wire 1 N MemRead $end
$var reg 1 7 NoOp $end
$var reg 1 6 PCWrite $end
$var reg 1 ( Stall_o $end
$upscope $end
$scope module IDEX $end
$var wire 2 $" ALUOp_i [1:0] $end
$var wire 1 \ ALUSrc_i $end
$var wire 1 : MemRead_i $end
$var wire 1 9 MemWrite_i $end
$var wire 1 8 MemtoReg_i $end
$var wire 5 %" RDaddr_i [4:0] $end
$var wire 5 &" RS1addr_i [4:0] $end
$var wire 5 '" RS2addr_i [4:0] $end
$var wire 1 2 RegWrite_i $end
$var wire 1 ! clk_i $end
$var wire 10 (" fun10_i [9:0] $end
$var wire 1 " rst_i $end
$var wire 32 )" immed_i [31:0] $end
$var wire 32 *" RS2_i [31:0] $end
$var wire 32 +" RS1_i [31:0] $end
$var reg 2 ," ALUOp_o [1:0] $end
$var reg 1 O ALUSrc_o $end
$var reg 1 N MemRead_o $end
$var reg 1 M MemWrite_o $end
$var reg 1 L MemtoReg_o $end
$var reg 5 -" RDaddr_o [4:0] $end
$var reg 32 ." RS1_o [31:0] $end
$var reg 5 /" RS1addr_o [4:0] $end
$var reg 32 0" RS2_o [31:0] $end
$var reg 5 1" RS2addr_o [4:0] $end
$var reg 1 F RegWrite_o $end
$var reg 10 2" fun10_o [9:0] $end
$var reg 32 3" immed_o [31:0] $end
$upscope $end
$scope module IFID $end
$var wire 1 ! clk_i $end
$var wire 1 C flush $end
$var wire 1 " rst_i $end
$var wire 1 ( stall $end
$var wire 32 4" pc_i [31:0] $end
$var wire 32 5" instr_i [31:0] $end
$var reg 32 6" instr_o [31:0] $end
$var reg 32 7" pc_o [31:0] $end
$upscope $end
$scope module Instruction_Memory $end
$var wire 32 8" instr_o [31:0] $end
$var wire 32 9" addr_i [31:0] $end
$upscope $end
$scope module MEMWB $end
$var wire 32 :" ALUout_i [31:0] $end
$var wire 1 T MemtoReg_i $end
$var wire 5 ;" RDaddr_i [4:0] $end
$var wire 32 <" ReadData_i [31:0] $end
$var wire 1 R RegWrite_i $end
$var wire 1 ! clk_i $end
$var wire 1 " rst_i $end
$var reg 32 =" ALUout_o [31:0] $end
$var reg 1 ? MemtoReg_o $end
$var reg 5 >" RDaddr_o [4:0] $end
$var reg 32 ?" ReadData_o [31:0] $end
$var reg 1 < RegWrite_o $end
$upscope $end
$scope module MUXA $end
$var wire 32 @" a [31:0] $end
$var wire 32 A" c [31:0] $end
$var wire 2 B" ctl [1:0] $end
$var wire 32 C" d [31:0] $end
$var wire 32 D" out [31:0] $end
$var wire 32 E" b [31:0] $end
$upscope $end
$scope module MUXB $end
$var wire 32 F" a [31:0] $end
$var wire 32 G" c [31:0] $end
$var wire 2 H" ctl [1:0] $end
$var wire 32 I" d [31:0] $end
$var wire 32 J" out [31:0] $end
$var wire 32 K" b [31:0] $end
$upscope $end
$scope module MUXC $end
$var wire 32 L" a [31:0] $end
$var wire 32 M" b [31:0] $end
$var wire 1 O ctl $end
$var wire 32 N" out [31:0] $end
$upscope $end
$scope module MUX_PC $end
$var wire 32 O" a [31:0] $end
$var wire 32 P" b [31:0] $end
$var wire 1 C ctl $end
$var wire 32 Q" out [31:0] $end
$upscope $end
$scope module PC $end
$var wire 1 6 PCWrite_i $end
$var wire 1 ! clk_i $end
$var wire 32 R" pc_i [31:0] $end
$var wire 1 " rst_i $end
$var reg 32 S" pc_o [31:0] $end
$upscope $end
$scope module Registers $end
$var wire 5 T" RDaddr_i [4:0] $end
$var wire 5 U" RS1addr_i [4:0] $end
$var wire 5 V" RS2addr_i [4:0] $end
$var wire 1 < RegWrite_i $end
$var wire 1 ! clk_i $end
$var wire 1 " rst_i $end
$var wire 32 W" RS2data_o [31:0] $end
$var wire 32 X" RS1data_o [31:0] $end
$var wire 32 Y" RDdata_i [31:0] $end
$var integer 32 Z" i [31:0] $end
$upscope $end
$scope module Sign_Extend $end
$var wire 32 [" instr [31:0] $end
$var reg 32 \" immed [31:0] $end
$upscope $end
$scope module WBSrc $end
$var wire 32 ]" a [31:0] $end
$var wire 32 ^" b [31:0] $end
$var wire 1 ? ctl $end
$var wire 32 _" out [31:0] $end
$upscope $end
$upscope $end
$upscope $end
$enddefinitions $end
#0
$dumpvars
b0 _"
b0 ^"
b0 ]"
b0 \"
b0 ["
bx Z"
b0 Y"
bx X"
bx W"
b0 V"
b0 U"
b0 T"
bx S"
bx R"
bx Q"
b0 P"
bx O"
b0 N"
b0 M"
b0 L"
b0 K"
b0 J"
b0 I"
b0 H"
b0 G"
b0 F"
b0 E"
b0 D"
b0 C"
b0 B"
b0 A"
b0 @"
b0 ?"
b0 >"
b0 ="
b0 <"
b0 ;"
b0 :"
bx 9"
bx 8"
b0 7"
b0 6"
bx 5"
bx 4"
b0 3"
b0 2"
b0 1"
b0 0"
b0 /"
b0 ."
b0 -"
b0 ,"
bx +"
bx *"
b0 )"
b0 ("
b0 '"
b0 &"
b0 %"
b0 $"
b0 #"
b0 ""
b0 !"
b0 ~
b0 }
b0 |
b0 {
b0 z
b0 y
bx x
bx w
b0 v
b0 u
b0 t
b0 s
b0 r
b0 q
b0 p
b0 o
b0 n
b0 m
b0 l
b0 k
b0 j
b0 i
bx h
bx g
b100 f
b10 e
b0 d
b0 c
b0 b
b10 a
b0 `
b0 _
b10 ^
b0 ]
0\
b0 [
b0 Z
b0 Y
0X
b0 W
0V
0U
0T
b0 S
0R
b0 Q
b0 P
0O
0N
0M
0L
b0 K
b0 J
b0 I
b0 H
b0 G
0F
b0 E
b0 D
0C
b0 B
b0 A
b0 @
0?
b0 >
b0 =
0<
b0 ;
0:
09
08
07
16
bx 5
bx 4
b0 3
02
b0 1
b0 0
b0 /
b0 .
bx -
b0 ,
bx +
bx *
bx )
0(
b0 '
b11 &
b100000 %
b0 $
b0 #
1"
0!
$end
#6
b110000010011 -
b110000010011 5"
b110000010011 8"
b100 +
b100 Q"
b100 R"
b0 5
b0 x
b0 +"
b0 X"
b0 4
b0 w
b0 *"
b0 W"
b100 *
b100 g
b100 O"
b0 )
b0 h
b0 4"
b0 9"
b0 S"
b0 B
b0 6"
b0 ["
b0 ,
b0 i
b0 P"
b0 A
b0 k
b0 7"
b100000 Z"
0"
#12
1"
#25
b1 ]
b1 m
b1 $"
12
1\
b11000 %"
b10011 l
b10000000000110100010011 -
b10000000000110100010011 5"
b10000000000110100010011 8"
b1000 +
b1000 Q"
b1000 R"
b110000010011 B
b110000010011 6"
b110000010011 ["
b1000 *
b1000 g
b1000 O"
b100 )
b100 h
b100 4"
b100 9"
b100 S"
b1 #
1!
#50
0!
#75
b10000000000111000010011 -
b10000000000111000010011 5"
b10000000000111000010011 8"
b1100 +
b1100 Q"
b1100 R"
b100 .
b100 j
b100 )"
b100 \"
b100 ""
b11010 %"
b100 '"
b100 V"
b1100 *
b1100 g
b1100 O"
b1000 )
b1000 h
b1000 4"
b1000 9"
b1000 S"
b10000000000110100010011 B
b10000000000110100010011 6"
b10000000000110100010011 ["
b1000 ,
b1000 i
b1000 P"
b100 A
b100 k
b100 7"
b11000 K
b11000 s
b11000 #"
b11000 -"
1O
b1 P
b1 d
b1 ,"
1F
b10 #
1!
#100
0!
#125
b100 Y
b100 b
b100 q
b100 Z
b100 _
b100 N"
b11100 %"
b11111111111100000000011110010011 -
b11111111111100000000011110010011 5"
b11111111111100000000011110010011 8"
b10000 +
b10000 Q"
b10000 R"
b11000 S
b11000 u
b11000 y
b11000 ;"
1R
b11010 K
b11010 s
b11010 #"
b11010 -"
b100 H
b100 {
b100 1"
b100 D
b100 3"
b100 M"
b10000000000111000010011 B
b10000000000111000010011 6"
b10000000000111000010011 ["
b1100 ,
b1100 i
b1100 P"
b1000 A
b1000 k
b1000 7"
b10000 *
b10000 g
b10000 O"
b1100 )
b1100 h
b1100 4"
b1100 9"
b1100 S"
b11 #
1!
#150
0!
#175
b111110 4
b111110 w
b111110 *"
b111110 W"
b11110011010000110010110011 -
b11110011010000110010110011 5"
b11110011010000110010110011 8"
b10100 +
b10100 Q"
b10100 R"
b11111111111111111111111111111111 .
b11111111111111111111111111111111 j
b11111111111111111111111111111111 )"
b11111111111111111111111111111111 \"
b11111 ""
b1111 %"
b11111 '"
b1111111000 ("
b11111 V"
b10100 *
b10100 g
b10100 O"
b10000 )
b10000 h
b10000 4"
b10000 9"
b10000 S"
b11111111111100000000011110010011 B
b11111111111100000000011110010011 6"
b11111111111100000000011110010011 ["
b1011 ,
b1011 i
b1011 P"
b1100 A
b1100 k
b1100 7"
b11100 K
b11100 s
b11100 #"
b11100 -"
b11010 S
b11010 u
b11010 y
b11010 ;"
b100 W
b100 p
b100 t
b100 :"
b100 A"
b100 G"
b11000 >
b11000 z
b11000 >"
b11000 T"
1<
b100 #
1!
#200
0!
#225
b11111111111111111111111111111111 Y
b11111111111111111111111111111111 b
b11111111111111111111111111111111 q
b111110 ;
b111110 r
b111110 J"
b111110 L"
b111000 4
b111000 w
b111000 *"
b111000 W"
b100 5
b100 x
b100 +"
b100 X"
b10 ]
b10 m
b10 $"
0\
b100 1
b100 E"
b100 K"
b100 Y"
b100 _"
b11111111111111111111111111111111 Z
b11111111111111111111111111111111 _
b11111111111111111111111111111111 N"
b0 .
b0 j
b0 )"
b0 \"
b11100 ""
b11010 !"
b11001 %"
b11100 '"
b11010 &"
b1000 ("
b11100 V"
b11010 U"
b110011 l
b11111111111111010000110100010011 -
b11111111111111010000110100010011 5"
b11111111111111010000110100010011 8"
b11000 +
b11000 Q"
b11000 R"
b11010 >
b11010 z
b11010 >"
b11010 T"
b100 @
b100 ="
b100 ]"
b11100 S
b11100 u
b11100 y
b11100 ;"
b1111 K
b1111 s
b1111 #"
b1111 -"
b11111 H
b11111 {
b11111 1"
b1111111000 E
b1111111000 c
b1111111000 2"
b11111111111111111111111111111111 D
b11111111111111111111111111111111 3"
b11111111111111111111111111111111 M"
b111110 G
b111110 0"
b111110 F"
b11110011010000110010110011 B
b11110011010000110010110011 6"
b11110011010000110010110011 ["
b10000 ,
b10000 i
b10000 P"
b10000 A
b10000 k
b10000 7"
b11000 *
b11000 g
b11000 O"
b10100 )
b10100 h
b10100 4"
b10100 9"
b10100 S"
b101 #
1!
#250
0!
#275
b1 ]
b1 m
b1 $"
1\
b100 ;
b100 r
b100 J"
b100 L"
b100 [
b100 `
b100 D"
b10000 Y
b10000 b
b10000 q
b111110 4
b111110 w
b111110 *"
b111110 W"
b11001010110110000011 -
b11001010110110000011 5"
b11001010110110000011 8"
b11100 +
b11100 Q"
b11100 R"
b11111111111111111111111111111111 .
b11111111111111111111111111111111 j
b11111111111111111111111111111111 )"
b11111111111111111111111111111111 \"
b11111 ""
b11010 %"
b11111 '"
b1111111000 ("
b11111 V"
b10011 l
b100 Z
b100 _
b100 N"
b101 ^
b101 a
b101 e
b1 /
b1 ~
b1 H"
b11100 *
b11100 g
b11100 O"
b11000 )
b11000 h
b11000 4"
b11000 9"
b11000 S"
b11111111111111010000110100010011 B
b11111111111111010000110100010011 6"
b11111111111111010000110100010011 ["
b10011 ,
b10011 i
b10011 P"
b10100 A
b10100 k
b10100 7"
b11001 K
b11001 s
b11001 #"
b11001 -"
b11100 H
b11100 {
b11100 1"
b11010 J
b11010 |
b11010 /"
b1000 E
b1000 c
b1000 2"
b0 D
b0 3"
b0 M"
b111000 G
b111000 0"
b111000 F"
b100 I
b100 ."
b100 @"
0O
b10 P
b10 d
b10 ,"
b1111 S
b1111 u
b1111 y
b1111 ;"
b111110 Q
b111110 o
b111110 v
b11111111111111111111111111111111 W
b11111111111111111111111111111111 p
b11111111111111111111111111111111 t
b11111111111111111111111111111111 :"
b11111111111111111111111111111111 A"
b11111111111111111111111111111111 G"
b11100 >
b11100 z
b11100 >"
b11100 T"
b110 #
1!
#300
0!
#325
b111110 ;
b111110 r
b111110 J"
b111110 L"
b11 Y
b11 b
b11 q
b0 4
b0 w
b0 *"
b0 W"
b11111111111111111111111111100111 5
b11111111111111111111111111100111 x
b11111111111111111111111111100111 +"
b11111111111111111111111111100111 X"
b0 ]
b0 m
b0 $"
1:
18
b11111111111111111111111111111111 1
b11111111111111111111111111111111 E"
b11111111111111111111111111111111 K"
b11111111111111111111111111111111 Y"
b11111111111111111111111111111111 _"
b0 /
b0 ~
b0 H"
b11111111111111111111111111111111 Z
b11111111111111111111111111111111 _
b11111111111111111111111111111111 N"
b10 ^
b10 a
b10 e
b0 .
b0 j
b0 )"
b0 \"
b0 ""
b11001 !"
b11011 %"
b0 '"
b11001 &"
b10 ("
b0 V"
b11001 U"
b11 l
b1101111000000110000110011 -
b1101111000000110000110011 5"
b1101111000000110000110011 8"
b100000 +
b100000 Q"
b100000 R"
b1111 >
b1111 z
b1111 >"
b1111 T"
b11111111111111111111111111111111 @
b11111111111111111111111111111111 ="
b11111111111111111111111111111111 ]"
b11001 S
b11001 u
b11001 y
b11001 ;"
b100 Q
b100 o
b100 v
b10000 W
b10000 p
b10000 t
b10000 :"
b10000 A"
b10000 G"
b11010 K
b11010 s
b11010 #"
b11010 -"
b11111 H
b11111 {
b11111 1"
b1111111000 E
b1111111000 c
b1111111000 2"
b11111111111111111111111111111111 D
b11111111111111111111111111111111 3"
b11111111111111111111111111111111 M"
b111110 G
b111110 0"
b111110 F"
1O
b1 P
b1 d
b1 ,"
b11001010110110000011 B
b11001010110110000011 6"
b11001010110110000011 ["
b11000 ,
b11000 i
b11000 P"
b11000 A
b11000 k
b11000 7"
b100000 *
b100000 g
b100000 O"
b11100 )
b11100 h
b11100 4"
b11100 9"
b11100 S"
b111 #
1!
#350
0!
#375
02
06
17
1(
b11111111111111111111111111100101 4
b11111111111111111111111111100101 w
b11111111111111111111111111100101 *"
b11111111111111111111111111100101 W"
b0 ]
b0 m
b0 $"
0:
08
0\
b10000 Y
b10000 b
b10000 q
b0 ;
b0 r
b0 J"
b0 L"
b10000 [
b10000 `
b10000 D"
b0 5
b0 x
b0 +"
b0 X"
b111111010000010001100011 -
b111111010000010001100011 5"
b111111010000010001100011 8"
b100100 +
b100100 Q"
b100100 R"
b11011 ""
b11000 !"
b11000 %"
b11011 '"
b11000 &"
b0 ("
b11011 V"
b11000 U"
b110011 l
b0 Z
b0 _
b0 N"
b1 0
b1 }
b1 B"
b10000 1
b10000 E"
b10000 K"
b10000 Y"
b10000 _"
b100100 *
b100100 g
b100100 O"
b100000 )
b100000 h
b100000 4"
b100000 9"
b100000 S"
b1101111000000110000110011 B
b1101111000000110000110011 6"
b1101111000000110000110011 ["
b11100 ,
b11100 i
b11100 P"
b11100 A
b11100 k
b11100 7"
b11011 K
b11011 s
b11011 #"
b11011 -"
b0 H
b0 {
b0 1"
b11001 J
b11001 |
b11001 /"
b10 E
b10 c
b10 2"
b0 D
b0 3"
b0 M"
b0 G
b0 0"
b0 F"
b11111111111111111111111111100111 I
b11111111111111111111111111100111 ."
b11111111111111111111111111100111 @"
b0 P
b0 d
b0 ,"
1N
1L
b11010 S
b11010 u
b11010 y
b11010 ;"
b111110 Q
b111110 o
b111110 v
b11 W
b11 p
b11 t
b11 :"
b11 A"
b11 G"
b11001 >
b11001 z
b11001 >"
b11001 T"
b10000 @
b10000 ="
b10000 ]"
b1000 #
1!
#400
0!
#425
b10000 Y
b10000 b
b10000 q
b0 [
b0 `
b0 D"
b10000 Z
b10000 _
b10000 N"
b10000 ;
b10000 r
b10000 J"
b10000 L"
b10 ]
b10 m
b10 $"
12
16
b11 1
b11 E"
b11 K"
b11 Y"
b11 _"
b11101 3
b11101 n
b11101 <"
b10 /
b10 ~
b10 H"
b0 0
b0 }
b0 B"
07
0(
b11010 >
b11010 z
b11010 >"
b11010 T"
b11 @
b11 ="
b11 ]"
b11011 S
b11011 u
b11011 y
b11011 ;"
b0 Q
b0 o
b0 v
b10000 W
b10000 p
b10000 t
b10000 :"
b10000 A"
b10000 G"
1V
1T
b11000 K
b11000 s
b11000 #"
b11000 -"
b11011 H
b11011 {
b11011 1"
b11000 J
b11000 |
b11000 /"
b0 E
b0 c
b0 2"
b11111111111111111111111111100101 G
b11111111111111111111111111100101 0"
b11111111111111111111111111100101 F"
b0 I
b0 ."
b0 @"
0O
0N
0L
0F
b1001 #
b1 '
1!
#450
0!
#475
b11101 Y
b11101 b
b11101 q
b11101 Z
b11101 _
b11101 N"
b11101 ;
b11101 r
b11101 J"
b11101 L"
b11 5
b11 x
b11 +"
b11 X"
b1 ]
b1 m
b1 $"
1X
02
b11111111111111111111111111111111 4
b11111111111111111111111111111111 w
b11111111111111111111111111111111 *"
b11111111111111111111111111111111 W"
b11111110000000000000011011100011 -
b11111110000000000000011011100011 5"
b11111110000000000000011011100011 8"
b101000 +
b101000 Q"
b101000 R"
b1000 .
b1000 j
b1000 )"
b1000 \"
b1111 ""
b11010 !"
b1000 %"
b1111 '"
b11010 &"
b1111 V"
b11010 U"
b1100011 l
b0 3
b0 n
b0 <"
b1 /
b1 ~
b1 H"
b11101 1
b11101 E"
b11101 K"
b11101 Y"
b11101 _"
b101000 *
b101000 g
b101000 O"
b100100 )
b100100 h
b100100 4"
b100100 9"
b100100 S"
b111111010000010001100011 B
b111111010000010001100011 6"
b111111010000010001100011 ["
b101000 ,
b101000 i
b101000 P"
b100000 A
b100000 k
b100000 7"
b10 P
b10 d
b10 ,"
1F
b11000 S
b11000 u
b11000 y
b11000 ;"
b10000 Q
b10000 o
b10000 v
0V
0T
0R
b11011 >
b11011 z
b11011 >"
b11011 T"
b11101 =
b11101 ?"
b11101 ^"
b10000 @
b10000 ="
b10000 ]"
1?
b1010 #
1!
#500
0!
#525
b11111111111111111111111111111111 Z
b11111111111111111111111111111111 _
b11111111111111111111111111111111 N"
b11111111111111111111111111111111 ;
b11111111111111111111111111111111 r
b11111111111111111111111111111111 J"
b11111111111111111111111111111111 L"
b10 Y
b10 b
b10 q
1C
b11 [
b11 `
b11 D"
b0 4
b0 w
b0 *"
b0 W"
b0 5
b0 x
b0 +"
b0 X"
b10000 1
b10000 E"
b10000 K"
b10000 Y"
b10000 _"
b0 /
b0 ~
b0 H"
b11111111111111111111111111101100 .
b11111111111111111111111111101100 j
b11111111111111111111111111101100 )"
b11111111111111111111111111101100 \"
b0 ""
b0 !"
b1101 %"
b0 '"
b0 &"
b1111111000 ("
b0 V"
b0 U"
b1100000000010111000100011 -
b1100000000010111000100011 5"
b1100000000010111000100011 8"
b10000 +
b10000 Q"
b10000 R"
b11000 >
b11000 z
b11000 >"
b11000 T"
b0 =
b0 ?"
b0 ^"
0?
0<
b11101 Q
b11101 o
b11101 v
b11101 W
b11101 p
b11101 t
b11101 :"
b11101 A"
b11101 G"
1R
b1000 K
b1000 s
b1000 #"
b1000 -"
b1111 H
b1111 {
b1111 1"
b11010 J
b11010 |
b11010 /"
b1000 D
b1000 3"
b1000 M"
b11111111111111111111111111111111 G
b11111111111111111111111111111111 0"
b11111111111111111111111111111111 F"
b11 I
b11 ."
b11 @"
b1 P
b1 d
b1 ,"
0F
b11111110000000000000011011100011 B
b11111110000000000000011011100011 6"
b11111110000000000000011011100011 ["
b10000 ,
b10000 i
b10000 P"
b100100 A
b100100 k
b100100 7"
b101100 *
b101100 g
b101100 O"
b101000 )
b101000 h
b101000 4"
b101000 9"
b101000 S"
b1011 #
1!
#550
0!
#575
0C
b0 Z
b0 _
b0 N"
b0 Y
b0 b
b0 q
b0 ]
b0 m
b0 $"
0X
b0 ;
b0 r
b0 J"
b0 L"
b0 [
b0 `
b0 D"
b11110011010000110010110011 -
b11110011010000110010110011 5"
b11110011010000110010110011 8"
b0 .
b0 j
b0 )"
b0 \"
b0 %"
b0 ("
b0 l
b10100 +
b10100 Q"
b10100 R"
b11101 1
b11101 E"
b11101 K"
b11101 Y"
b11101 _"
b10100 *
b10100 g
b10100 O"
b10000 )
b10000 h
b10000 4"
b10000 9"
b10000 S"
b0 B
b0 6"
b0 ["
b0 ,
b0 i
b0 P"
b0 A
b0 k
b0 7"
b1101 K
b1101 s
b1101 #"
b1101 -"
b0 H
b0 {
b0 1"
b0 J
b0 |
b0 /"
b1111111000 E
b1111111000 c
b1111111000 2"
b11111111111111111111111111101100 D
b11111111111111111111111111101100 3"
b11111111111111111111111111101100 M"
b0 G
b0 0"
b0 F"
b0 I
b0 ."
b0 @"
b1000 S
b1000 u
b1000 y
b1000 ;"
b11111111111111111111111111111111 Q
b11111111111111111111111111111111 o
b11111111111111111111111111111111 v
b10 W
b10 p
b10 t
b10 :"
b10 A"
b10 G"
0R
b11101 @
b11101 ="
b11101 ]"
1<
b1100 #
b1 $
1!
#600
0!
#625
b100 4
b100 w
b100 *"
b100 W"
b11 5
b11 x
b11 +"
b11 X"
b10 ]
b10 m
b10 $"
12
b10 1
b10 E"
b10 K"
b10 Y"
b10 _"
b11100 ""
b11010 !"
b11001 %"
b11100 '"
b11010 &"
b1000 ("
b11100 V"
b11010 U"
b110011 l
b11111111111111010000110100010011 -
b11111111111111010000110100010011 5"
b11111111111111010000110100010011 8"
b11000 +
b11000 Q"
b11000 R"
b1000 >
b1000 z
b1000 >"
b1000 T"
b10 @
b10 ="
b10 ]"
0<
b1101 S
b1101 u
b1101 y
b1101 ;"
b0 Q
b0 o
b0 v
b0 W
b0 p
b0 t
b0 :"
b0 A"
b0 G"
b0 K
b0 s
b0 #"
b0 -"
b0 E
b0 c
b0 2"
b0 D
b0 3"
b0 M"
b0 P
b0 d
b0 ,"
b11110011010000110010110011 B
b11110011010000110010110011 6"
b11110011010000110010110011 ["
b10000 ,
b10000 i
b10000 P"
b10000 A
b10000 k
b10000 7"
b11000 *
b11000 g
b11000 O"
b10100 )
b10100 h
b10100 4"
b10100 9"
b10100 S"
b1101 #
1!
#650
0!
#675
b1100 Y
b1100 b
b1100 q
b100 Z
b100 _
b100 N"
b111110 4
b111110 w
b111110 *"
b111110 W"
b1 ]
b1 m
b1 $"
1\
b100 ;
b100 r
b100 J"
b100 L"
b11 [
b11 `
b11 D"
b11001010110110000011 -
b11001010110110000011 5"
b11001010110110000011 8"
b11100 +
b11100 Q"
b11100 R"
b11111111111111111111111111111111 .
b11111111111111111111111111111111 j
b11111111111111111111111111111111 )"
b11111111111111111111111111111111 \"
b11111 ""
b11010 %"
b11111 '"
b1111111000 ("
b11111 V"
b10011 l
b101 ^
b101 a
b101 e
b0 1
b0 E"
b0 K"
b0 Y"
b0 _"
b11100 *
b11100 g
b11100 O"
b11000 )
b11000 h
b11000 4"
b11000 9"
b11000 S"
b11111111111111010000110100010011 B
b11111111111111010000110100010011 6"
b11111111111111010000110100010011 ["
b10011 ,
b10011 i
b10011 P"
b10100 A
b10100 k
b10100 7"
b11001 K
b11001 s
b11001 #"
b11001 -"
b11100 H
b11100 {
b11100 1"
b11010 J
b11010 |
b11010 /"
b1000 E
b1000 c
b1000 2"
b100 G
b100 0"
b100 F"
b11 I
b11 ."
b11 @"
b10 P
b10 d
b10 ,"
1F
b0 S
b0 u
b0 y
b0 ;"
b1101 >
b1101 z
b1101 >"
b1101 T"
b0 @
b0 ="
b0 ]"
b1110 #
1!
#700
0!
