hw4/lab2/log/waveform_2.vcd
$date
	Tue Nov 21 09:25:11 2023
$end
$version
	Icarus Verilog
$end
$timescale
	1s
$end
$scope module TestBench $end
$var reg 1 ! Clk $end
$var reg 1 " Reset $end
$var integer 32 # counter [31:0] $end
$var integer 32 $ flush [31:0] $end
$var integer 32 % i [31:0] $end
$var integer 32 & outfile [31:0] $end
$var integer 32 ' stall [31:0] $end
$scope module CPU $end
$var wire 1 ! clk_i $end
$var wire 1 " rst_i $end
$var wire 1 ( stall $end
$var wire 32 ) pc_o [31:0] $end
$var wire 32 * pc_normal_i [31:0] $end
$var wire 32 + pc_i [31:0] $end
$var wire 32 , pc_branch_i [31:0] $end
$var wire 32 - instr_o [31:0] $end
$var wire 32 . immed [31:0] $end
$var wire 2 / forward_B [1:0] $end
$var wire 2 0 forward_A [1:0] $end
$var wire 32 1 WBData [31:0] $end
$var wire 1 2 RegWrite $end
$var wire 32 3 ReadData_o [31:0] $end
$var wire 32 4 RS2data [31:0] $end
$var wire 32 5 RS1data [31:0] $end
$var wire 1 6 PCWrite $end
$var wire 1 7 NoOp $end
$var wire 1 8 MemtoReg $end
$var wire 1 9 MemWrite $end
$var wire 1 : MemRead $end
$var wire 32 ; MUXC_Src1 [31:0] $end
$var wire 1 < MEMWB_RegWrite $end
$var wire 32 = MEMWB_ReadData [31:0] $end
$var wire 5 > MEMWB_RDaddr [4:0] $end
$var wire 1 ? MEMWB_MemtoReg $end
$var wire 32 @ MEMWB_ALUout [31:0] $end
$var wire 32 A IFID_pc_o [31:0] $end
$var wire 32 B IFID_instr [31:0] $end
$var wire 1 C ID_FlushIF $end
$var wire 32 D IDEX_immed [31:0] $end
$var wire 10 E IDEX_fun10 [9:0] $end
$var wire 1 F IDEX_RegWrite $end
$var wire 32 G IDEX_RS2data [31:0] $end
$var wire 5 H IDEX_RS2addr [4:0] $end
$var wire 32 I IDEX_RS1data [31:0] $end
$var wire 5 J IDEX_RS1addr [4:0] $end
$var wire 5 K IDEX_RDaddr [4:0] $end
$var wire 1 L IDEX_MemtoReg $end
$var wire 1 M IDEX_MemWrite $end
$var wire 1 N IDEX_MemRead $end
$var wire 1 O IDEX_ALUSrc $end
$var wire 2 P IDEX_ALUOp [1:0] $end
$var wire 32 Q EXMEM_WriteData [31:0] $end
$var wire 1 R EXMEM_RegWrite $end
$var wire 5 S EXMEM_RDaddr [4:0] $end
$var wire 1 T EXMEM_MemtoReg $end
$var wire 1 U EXMEM_MemWrite $end
$var wire 1 V EXMEM_MemRead $end
$var wire 32 W EXMEM_ALUout [31:0] $end
$var wire 1 X Branch $end
$var wire 32 Y ALUout [31:0] $end
$var wire 32 Z ALUSrc2 [31:0] $end
$var wire 32 [ ALUSrc1 [31:0] $end
$var wire 1 \ ALUSrc $end
$var wire 2 ] ALUOp [1:0] $end
$var wire 3 ^ ALUCtl [2:0] $end
$scope module ALU $end
$var wire 32 _ b [31:0] $end
$var wire 32 ` a [31:0] $end
$var wire 3 a ALUCtl [2:0] $end
$var reg 32 b out [31:0] $end
$upscope $end
$scope module ALU_Control $end
$var wire 10 c I [9:0] $end
$var wire 2 d ALUOp [1:0] $end
$var reg 3 e ALUCtl [2:0] $end
$upscope $end
$scope module Add_PC1 $end
$var wire 32 f b [31:0] $end
$var wire 32 g sum [31:0] $end
$var wire 32 h a [31:0] $end
$upscope $end
$scope module Add_PC2 $end
$var wire 32 i sum [31:0] $end
$var wire 32 j b [31:0] $end
$var wire 32 k a [31:0] $end
$upscope $end
$scope module Control $end
$var wire 7 l opcode [6:0] $end
$var wire 1 7 NoOp $end
$var reg 2 m ALUOp [1:0] $end
$var reg 1 \ ALUSrc $end
$var reg 1 X Branch_o $end
$var reg 1 : MemRead $end
$var reg 1 9 MemWrite $end
$var reg 1 8 MemtoReg $end
$var reg 1 2 RegWrite $end
$upscope $end
$scope module Data_Memory $end
$var wire 1 ! clk_i $end
$var wire 32 n data_o [31:0] $end
$var wire 32 o data_i [31:0] $end
$var wire 32 p addr_i [31:0] $end
$var wire 1 U MemWrite_i $end
$var wire 1 V MemRead_i $end
$upscope $end
$scope module EXMEM $end
$var wire 32 q MemAddr_i [31:0] $end
$var wire 1 ! clk_i $end
$var wire 1 " rst_i $end
$var wire 32 r WriteData_i [31:0] $end
$var wire 1 F RegWrite_i $end
$var wire 5 s RDaddr_i [4:0] $end
$var wire 1 L MemtoReg_i $end
$var wire 1 M MemWrite_i $end
$var wire 1 N MemRead_i $end
$var reg 32 t MemAddr_o [31:0] $end
$var reg 1 V MemRead_o $end
$var reg 1 U MemWrite_o $end
$var reg 1 T MemtoReg_o $end
$var reg 5 u RDaddr_o [4:0] $end
$var reg 1 R RegWrite_o $end
$var reg 32 v WriteData_o [31:0] $end
$upscope $end
$scope module Flush $end
$var wire 1 X Branch $end
$var wire 32 w RS2 [31:0] $end
$var wire 32 x RS1 [31:0] $end
$var reg 1 C flush $end
$upscope $end
$scope module Forwarding $end
$var wire 5 y EXMEM_RD [4:0] $end
$var wire 1 R EXMEM_RegWrite $end
$var wire 1 < MEMWB_RegWrite $end
$var wire 5 z MEMWB_RD [4:0] $end
$var wire 5 { IDEX_RS2 [4:0] $end
$var wire 5 | IDEX_RS1 [4:0] $end
$var reg 2 } A [1:0] $end
$var reg 2 ~ B [1:0] $end
$upscope $end
$scope module Hazard_Detection $end
$var wire 5 !" RS1 [4:0] $end
$var wire 5 "" RS2 [4:0] $end
$var wire 5 #" RD [4:0] $end
$var wire 1 N MemRead $end
$var reg 1 7 NoOp $end
$var reg 1 6 PCWrite $end
$var reg 1 ( Stall_o $end
$upscope $end
$scope module IDEX $end
$var wire 2 $" ALUOp_i [1:0] $end
$var wire 1 \ ALUSrc_i $end
$var wire 1 : MemRead_i $end
$var wire 1 9 MemWrite_i $end
$var wire 1 8 MemtoReg_i $end
$var wire 5 %" RDaddr_i [4:0] $end
$var wire 5 &" RS1addr_i [4:0] $end
$var wire 5 '" RS2addr_i [4:0] $end
$var wire 1 2 RegWrite_i $end
$var wire 1 ! clk_i $end
$var wire 10 (" fun10_i [9:0] $end
$var wire 1 " rst_i $end
$var wire 32 )" immed_i [31:0] $end
$var wire 32 *" RS2_i [31:0] $end
$var wire 32 +" RS1_i [31:0] $end
$var reg 2 ," ALUOp_o [1:0] $end
$var reg 1 O ALUSrc_o $end
$var reg 1 N MemRead_o $end
$var reg 1 M MemWrite_o $end
$var reg 1 L MemtoReg_o $end
$var reg 5 -" RDaddr_o [4:0] $end
$var reg 32 ." RS1_o [31:0] $end
$var reg 5 /" RS1addr_o [4:0] $end
$var reg 32 0" RS2_o [31:0] $end
$var reg 5 1" RS2addr_o [4:0] $end
$var reg 1 F RegWrite_o $end
$var reg 10 2" fun10_o [9:0] $end
$var reg 32 3" immed_o [31:0] $end
$upscope $end
$scope module IFID $end
$var wire 1 ! clk_i $end
$var wire 1 C flush $end
$var wire 1 " rst_i $end
$var wire 1 ( stall $end
$var wire 32 4" pc_i [31:0] $end
$var wire 32 5" instr_i [31:0] $end
$var reg 32 6" instr_o [31:0] $end
$var reg 32 7" pc_o [31:0] $end
$upscope $end
$scope module Instruction_Memory $end
$var wire 32 8" instr_o [31:0] $end
$var wire 32 9" addr_i [31:0] $end
$upscope $end
$scope module MEMWB $end
$var wire 32 :" ALUout_i [31:0] $end
$var wire 1 T MemtoReg_i $end
$var wire 5 ;" RDaddr_i [4:0] $end
$var wire 32 <" ReadData_i [31:0] $end
$var wire 1 R RegWrite_i $end
$var wire 1 ! clk_i $end
$var wire 1 " rst_i $end
$var reg 32 =" ALUout_o [31:0] $end
$var reg 1 ? MemtoReg_o $end
$var reg 5 >" RDaddr_o [4:0] $end
$var reg 32 ?" ReadData_o [31:0] $end
$var reg 1 < RegWrite_o $end
$upscope $end
$scope module MUXA $end
$var wire 32 @" a [31:0] $end
$var wire 32 A" c [31:0] $end
$var wire 2 B" ctl [1:0] $end
$var wire 32 C" d [31:0] $end
$var wire 32 D" out [31:0] $end
$var wire 32 E" b [31:0] $end
$upscope $end
$scope module MUXB $end
$var wire 32 F" a [31:0] $end
$var wire 32 G" c [31:0] $end
$var wire 2 H" ctl [1:0] $end
$var wire 32 I" d [31:0] $end
$var wire 32 J" out [31:0] $end
$var wire 32 K" b [31:0] $end
$upscope $end
$scope module MUXC $end
$var wire 32 L" a [31:0] $end
$var wire 32 M" b [31:0] $end
$var wire 1 O ctl $end
$var wire 32 N" out [31:0] $end
$upscope $end
$scope module MUX_PC $end
$var wire 32 O" a [31:0] $end
$var wire 32 P" b [31:0] $end
$var wire 1 C ctl $end
$var wire 32 Q" out [31:0] $end
$upscope $end
$scope module PC $end
$var wire 1 6 PCWrite_i $end
$var wire 1 ! clk_i $end
$var wire 32 R" pc_i [31:0] $end
$var wire 1 " rst_i $end
$var reg 32 S" pc_o [31:0] $end
$upscope $end
$scope module Registers $end
$var wire 5 T" RDaddr_i [4:0] $end
$var wire 5 U" RS1addr_i [4:0] $end
$var wire 5 V" RS2addr_i [4:0] $end
$var wire 1 < RegWrite_i $end
$var wire 1 ! clk_i $end
$var wire 1 " rst_i $end
$var wire 32 W" RS2data_o [31:0] $end
$var wire 32 X" RS1data_o [31:0] $end
$var wire 32 Y" RDdata_i [31:0] $end
$var integer 32 Z" i [31:0] $end
$upscope $end
$scope module Sign_Extend $end
$var wire 32 [" instr [31:0] $end
$var reg 32 \" immed [31:0] $end
$upscope $end
$scope module WBSrc $end
$var wire 32 ]" a [31:0] $end
$var wire 32 ^" b [31:0] $end
$var wire 1 ? ctl $end
$var wire 32 _" out [31:0] $end
$upscope $end
$upscope $end
$upscope $end
$enddefinitions $end
#0
$dumpvars
b0 _"
b0 ^"
b0 ]"
b0 \"
b0 ["
bx Z"
b0 Y"
bx X"
bx W"
b0 V"
b0 U"
b0 T"
bx S"
bx R"
bx Q"
b0 P"
bx O"
b0 N"
b0 M"
b0 L"
b0 K"
b0 J"
b0 I"
b0 H"
b0 G"
b0 F"
b0 E"
b0 D"
b0 C"
b0 B"
b0 A"
b0 @"
b0 ?"
b0 >"
b0 ="
b0 <"
b0 ;"
b0 :"
bx 9"
bx 8"
b0 7"
b0 6"
bx 5"
bx 4"
b0 3"
b0 2"
b0 1"
b0 0"
b0 /"
b0 ."
b0 -"
b0 ,"
bx +"
bx *"
b0 )"
b0 ("
b0 '"
b0 &"
b0 %"
b0 $"
b0 #"
b0 ""
b0 !"
b0 ~
b0 }
b0 |
b0 {
b0 z
b0 y
bx x
bx w
b0 v
b0 u
b0 t
b0 s
b0 r
b0 q
b0 p
b0 o
b0 n
b0 m
b0 l
b0 k
b0 j
b0 i
bx h
bx g
b100 f
b10 e
b0 d
b0 c
b0 b
b10 a
b0 `
b0 _
b10 ^
b0 ]
0\
b0 [
b0 Z
b0 Y
0X
b0 W
0V
0U
0T
b0 S
0R
b0 Q
b0 P
0O
0N
0M
0L
b0 K
b0 J
b0 I
b0 H
b0 G
0F
b0 E
b0 D
0C
b0 B
b0 A
b0 @
0?
b0 >
b0 =
0<
b0 ;
0:
09
08
07
16
bx 5
bx 4
b0 3
02
b0 1
b0 0
b0 /
b0 .
bx -
b0 ,
bx +
bx *
bx )
0(
b0 '
b11 &
b100000 %
b0 $
b0 #
1"
0!
$end
#6
b1100010000000100000110011 -
b1100010000000100000110011 5"
b1100010000000100000110011 8"
b100 +
b100 Q"
b100 R"
b0 5
b0 x
b0 +"
b0 X"
b0 4
b0 w
b0 *"
b0 W"
b100 *
b100 g
b100 O"
b0 )
b0 h
b0 4"
b0 9"
b0 S"
b0 B
b0 6"
b0 ["
b0 ,
b0 i
b0 P"
b0 A
b0 k
b0 7"
b100000 Z"
0"
#12
1"
#25
b11111111111111111111111111101000 4
b11111111111111111111111111101000 w
b11111111111111111111111111101000 *"
b11111111111111111111111111101000 W"
b10 ]
b10 m
b10 $"
12
b11000 ""
b10000 !"
b10000 %"
b11000 '"
b10000 &"
b11000 V"
b10000 U"
b110011 l
b1100110000000100000110011 -
b1100110000000100000110011 5"
b1100110000000100000110011 8"
b1000 +
b1000 Q"
b1000 R"
b1100010000000100000110011 B
b1100010000000100000110011 6"
b1100010000000100000110011 ["
b1000 *
b1000 g
b1000 O"
b100 )
b100 h
b100 4"
b100 9"
b100 S"
b1 #
1!
#50
0!
#75
b11111111111111111111111111101000 Y
b11111111111111111111111111101000 b
b11111111111111111111111111101000 q
b11111111111111111111111111101000 Z
b11111111111111111111111111101000 _
b11111111111111111111111111101000 N"
b11111111111111111111111111100111 4
b11111111111111111111111111100111 w
b11111111111111111111111111100111 *"
b11111111111111111111111111100111 W"
b11111111111111111111111111101000 ;
b11111111111111111111111111101000 r
b11111111111111111111111111101000 J"
b11111111111111111111111111101000 L"
b1101010000000100000110011 -
b1101010000000100000110011 5"
b1101010000000100000110011 8"
b1100 +
b1100 Q"
b1100 R"
b11001 ""
b11001 '"
b11001 V"
b1100 *
b1100 g
b1100 O"
b1000 )
b1000 h
b1000 4"
b1000 9"
b1000 S"
b1100110000000100000110011 B
b1100110000000100000110011 6"
b1100110000000100000110011 ["
b100 ,
b100 i
b100 P"
b100 A
b100 k
b100 7"
b10000 K
b10000 s
b10000 #"
b10000 -"
b11000 H
b11000 {
b11000 1"
b10000 J
b10000 |
b10000 /"
b11111111111111111111111111101000 G
b11111111111111111111111111101000 0"
b11111111111111111111111111101000 F"
b10 P
b10 d
b10 ,"
1F
b10 #
1!
#100
0!
#125
b11111111111111111111111111001111 Y
b11111111111111111111111111001111 b
b11111111111111111111111111001111 q
b11111111111111111111111111101000 [
b11111111111111111111111111101000 `
b11111111111111111111111111101000 D"
b11111111111111111111111111100111 Z
b11111111111111111111111111100111 _
b11111111111111111111111111100111 N"
b11111111111111111111111111100111 ;
b11111111111111111111111111100111 r
b11111111111111111111111111100111 J"
b11111111111111111111111111100111 L"
b11111111111111111111111111100110 4
b11111111111111111111111111100110 w
b11111111111111111111111111100110 *"
b11111111111111111111111111100110 W"
b10 0
b10 }
b10 B"
b11010 ""
b11010 '"
b11010 V"
b1110010000000100000110011 -
b1110010000000100000110011 5"
b1110010000000100000110011 8"
b10000 +
b10000 Q"
b10000 R"
b10000 S
b10000 u
b10000 y
b10000 ;"
b11111111111111111111111111101000 Q
b11111111111111111111111111101000 o
b11111111111111111111111111101000 v
b11111111111111111111111111101000 W
b11111111111111111111111111101000 p
b11111111111111111111111111101000 t
b11111111111111111111111111101000 :"
b11111111111111111111111111101000 A"
b11111111111111111111111111101000 G"
1R
b11001 H
b11001 {
b11001 1"
b11111111111111111111111111100111 G
b11111111111111111111111111100111 0"
b11111111111111111111111111100111 F"
b1101010000000100000110011 B
b1101010000000100000110011 6"
b1101010000000100000110011 ["
b1000 ,
b1000 i
b1000 P"
b1000 A
b1000 k
b1000 7"
b10000 *
b10000 g
b10000 O"
b1100 )
b1100 h
b1100 4"
b1100 9"
b1100 S"
b11 #
1!
#150
0!
#175
b11111111111111111111111111100110 Z
b11111111111111111111111111100110 _
b11111111111111111111111111100110 N"
b11111111111111111111111110110101 Y
b11111111111111111111111110110101 b
b11111111111111111111111110110101 q
b111000 4
b111000 w
b111000 *"
b111000 W"
b11111111111111111111111111100110 ;
b11111111111111111111111111100110 r
b11111111111111111111111111100110 J"
b11111111111111111111111111100110 L"
b11111111111111111111111111001111 [
b11111111111111111111111111001111 `
b11111111111111111111111111001111 D"
b11111111111111111111111111101000 5
b11111111111111111111111111101000 x
b11111111111111111111111111101000 +"
b11111111111111111111111111101000 X"
b1000000000010110000100011 -
b1000000000010110000100011 5"
b1000000000010110000100011 8"
b10100 +
b10100 Q"
b10100 R"
b11100 ""
b11100 '"
b11100 V"
b11111111111111111111111111101000 1
b11111111111111111111111111101000 E"
b11111111111111111111111111101000 K"
b11111111111111111111111111101000 Y"
b11111111111111111111111111101000 _"
b10100 *
b10100 g
b10100 O"
b10000 )
b10000 h
b10000 4"
b10000 9"
b10000 S"
b1110010000000100000110011 B
b1110010000000100000110011 6"
b1110010000000100000110011 ["
b1100 ,
b1100 i
b1100 P"
b1100 A
b1100 k
b1100 7"
b11010 H
b11010 {
b11010 1"
b11111111111111111111111111100110 G
b11111111111111111111111111100110 0"
b11111111111111111111111111100110 F"
b11111111111111111111111111100111 Q
b11111111111111111111111111100111 o
b11111111111111111111111111100111 v
b11111111111111111111111111001111 W
b11111111111111111111111111001111 p
b11111111111111111111111111001111 t
b11111111111111111111111111001111 :"
b11111111111111111111111111001111 A"
b11111111111111111111111111001111 G"
b10000 >
b10000 z
b10000 >"
b10000 T"
b11111111111111111111111111101000 @
b11111111111111111111111111101000 ="
b11111111111111111111111111101000 ]"
1<
b100 #
1!
#200
0!
#225
b11111111111111111111111111101101 Y
b11111111111111111111111111101101 b
b11111111111111111111111111101101 q
b111000 Z
b111000 _
b111000 N"
b0 5
b0 x
b0 +"
b0 X"
b11111111111111111111111110110101 [
b11111111111111111111111110110101 `
b11111111111111111111111110110101 D"
b111000 ;
b111000 r
b111000 J"
b111000 L"
b11111111111111111111111111001111 4
b11111111111111111111111111001111 w
b11111111111111111111111111001111 *"
b11111111111111111111111111001111 W"
b0 ]
b0 m
b0 $"
19
02
1\
b11111111111111111111111111001111 1
b11111111111111111111111111001111 E"
b11111111111111111111111111001111 K"
b11111111111111111111111111001111 Y"
b11111111111111111111111111001111 _"
b11000 .
b11000 j
b11000 )"
b11000 \"
b10000 ""
b0 !"
b11000 %"
b10000 '"
b0 &"
b10 ("
b10000 V"
b0 U"
b100011 l
b1000001111011111000000010110011 -
b1000001111011111000000010110011 5"
b1000001111011111000000010110011 8"
b11000 +
b11000 Q"
b11000 R"
b11111111111111111111111111001111 @
b11111111111111111111111111001111 ="
b11111111111111111111111111001111 ]"
b11111111111111111111111111100110 Q
b11111111111111111111111111100110 o
b11111111111111111111111111100110 v
b11111111111111111111111110110101 W
b11111111111111111111111110110101 p
b11111111111111111111111110110101 t
b11111111111111111111111110110101 :"
b11111111111111111111111110110101 A"
b11111111111111111111111110110101 G"
b11100 H
b11100 {
b11100 1"
b111000 G
b111000 0"
b111000 F"
b11111111111111111111111111101000 I
b11111111111111111111111111101000 ."
b11111111111111111111111111101000 @"
b1000000000010110000100011 B
b1000000000010110000100011 6"
b1000000000010110000100011 ["
b101000 ,
b101000 i
b101000 P"
b10000 A
b10000 k
b10000 7"
b11000 *
b11000 g
b11000 O"
b10100 )
b10100 h
b10100 4"
b10100 9"
b10100 S"
b101 #
1!
#250
0!
#275
b111110 5
b111110 x
b111110 +"
b111110 X"
b10 ]
b10 m
b10 $"
09
12
0\
b11111111111111111111111111101101 ;
b11111111111111111111111111101101 r
b11111111111111111111111111101101 J"
b11111111111111111111111111101101 L"
b11000 Y
b11000 b
b11000 q
b0 [
b0 `
b0 D"
b111100 4
b111100 w
b111100 *"
b111100 W"
b1111000001000000100110011 -
b1111000001000000100110011 5"
b1111000001000000100110011 8"
b11100 +
b11100 Q"
b11100 R"
b0 .
b0 j
b0 )"
b0 \"
b11110 ""
b11111 !"
b1 %"
b11110 '"
b11111 &"
b100000000 ("
b11110 V"
b11111 U"
b110011 l
b10 /
b10 ~
b10 H"
b0 0
b0 }
b0 B"
b11000 Z
b11000 _
b11000 N"
b11111111111111111111111110110101 1
b11111111111111111111111110110101 E"
b11111111111111111111111110110101 K"
b11111111111111111111111110110101 Y"
b11111111111111111111111110110101 _"
b11100 *
b11100 g
b11100 O"
b11000 )
b11000 h
b11000 4"
b11000 9"
b11000 S"
b1000001111011111000000010110011 B
b1000001111011111000000010110011 6"
b1000001111011111000000010110011 ["
b10100 ,
b10100 i
b10100 P"
b10100 A
b10100 k
b10100 7"
b11000 K
b11000 s
b11000 #"
b11000 -"
b10000 H
b10000 {
b10000 1"
b0 J
b0 |
b0 /"
b10 E
b10 c
b10 2"
b11000 D
b11000 3"
b11000 M"
b11111111111111111111111111001111 G
b11111111111111111111111111001111 0"
b11111111111111111111111111001111 F"
b0 I
b0 ."
b0 @"
1O
b0 P
b0 d
b0 ,"
1M
0F
b111000 Q
b111000 o
b111000 v
b11111111111111111111111111101101 W
b11111111111111111111111111101101 p
b11111111111111111111111111101101 t
b11111111111111111111111111101101 :"
b11111111111111111111111111101101 A"
b11111111111111111111111111101101 G"
b11111111111111111111111110110101 @
b11111111111111111111111110110101 ="
b11111111111111111111111110110101 ]"
b110 #
1!
#300
0!
#325
b111100 ;
b111100 r
b111100 J"
b111100 L"
b111110 [
b111110 `
b111110 D"
b10 Y
b10 b
b10 q
b0 5
b0 x
b0 +"
b0 X"
b11111111111111111111111111101101 1
b11111111111111111111111111101101 E"
b11111111111111111111111111101101 K"
b11111111111111111111111111101101 Y"
b11111111111111111111111111101101 _"
b0 /
b0 ~
b0 H"
b111100 Z
b111100 _
b111100 N"
b110 ^
b110 a
b110 e
b1 !"
b10 %"
b1 &"
b0 ("
b1 U"
b1000000001000010101000110010011 -
b1000000001000010101000110010011 5"
b1000000001000010101000110010011 8"
b100000 +
b100000 Q"
b100000 R"
b11111111111111111111111111101101 @
b11111111111111111111111111101101 ="
b11111111111111111111111111101101 ]"
b11000 S
b11000 u
b11000 y
b11000 ;"
b11111111111111111111111111101101 Q
b11111111111111111111111111101101 o
b11111111111111111111111111101101 v
b11000 W
b11000 p
b11000 t
b11000 :"
b11000 A"
b11000 G"
1U
0R
b1 K
b1 s
b1 #"
b1 -"
b11110 H
b11110 {
b11110 1"
b11111 J
b11111 |
b11111 /"
b100000000 E
b100000000 c
b100000000 2"
b0 D
b0 3"
b0 M"
b111100 G
b111100 0"
b111100 F"
b111110 I
b111110 ."
b111110 @"
0O
b10 P
b10 d
b10 ,"
0M
1F
b1111000001000000100110011 B
b1111000001000000100110011 6"
b1111000001000000100110011 ["
b11000 ,
b11000 i
b11000 P"
b11000 A
b11000 k
b11000 7"
b100000 *
b100000 g
b100000 O"
b11100 )
b11100 h
b11100 4"
b11100 9"
b11100 S"
b111 #
1!
#350
0!
#375
b0 4
b0 w
b0 *"
b0 W"
b1 ]
b1 m
b1 $"
1\
b111110 Y
b111110 b
b111110 q
b10 [
b10 `
b10 D"
b1000000000011010010011 -
b1000000000011010010011 5"
b1000000000011010010011 8"
b100100 +
b100100 Q"
b100100 R"
b10000000010 .
b10000000010 j
b10000000010 )"
b10000000010 \"
b10 ""
b10 !"
b11 %"
b10 '"
b10 &"
b100000101 ("
b10 V"
b10 U"
b10011 l
b10 ^
b10 a
b10 e
b11000 1
b11000 E"
b11000 K"
b11000 Y"
b11000 _"
b10 0
b10 }
b10 B"
b100100 *
b100100 g
b100100 O"
b100000 )
b100000 h
b100000 4"
b100000 9"
b100000 S"
b1000000001000010101000110010011 B
b1000000001000010101000110010011 6"
b1000000001000010101000110010011 ["
b10000011110 ,
b10000011110 i
b10000011110 P"
b11100 A
b11100 k
b11100 7"
b10 K
b10 s
b10 #"
b10 -"
b1 J
b1 |
b1 /"
b0 E
b0 c
b0 2"
b0 I
b0 ."
b0 @"
b1 S
b1 u
b1 y
b1 ;"
b111100 Q
b111100 o
b111100 v
b10 W
b10 p
b10 t
b10 :"
b10 A"
b10 G"
0U
1R
b11000 >
b11000 z
b11000 >"
b11000 T"
b11000 @
b11000 ="
b11000 ]"
0<
b1000 #
1!
#400
0!
#425
b111110 [
b111110 `
b111110 D"
b111110 ;
b111110 r
b111110 J"
b111110 L"
b1111 Y
b1111 b
b1111 q
b10 1
b10 E"
b10 K"
b10 Y"
b10 _"
b10 /
b10 ~
b10 H"
b10000000010 Z
b10000000010 _
b10000000010 N"
b111 ^
b111 a
b111 e
b10 .
b10 j
b10 )"
b10 \"
b0 !"
b1101 %"
b0 &"
b0 ("
b0 U"
b110111110001011110110011 -
b110111110001011110110011 5"
b110111110001011110110011 8"
b101000 +
b101000 Q"
b101000 R"
b1 >
b1 z
b1 >"
b1 T"
b10 @
b10 ="
b10 ]"
1<
b10 S
b10 u
b10 y
b10 ;"
b111110 W
b111110 p
b111110 t
b111110 :"
b111110 A"
b111110 G"
b11 K
b11 s
b11 #"
b11 -"
b10 H
b10 {
b10 1"
b10 J
b10 |
b10 /"
b100000101 E
b100000101 c
b100000101 2"
b10000000010 D
b10000000010 3"
b10000000010 M"
b0 G
b0 0"
b0 F"
1O
b1 P
b1 d
b1 ,"
b1000000000011010010011 B
b1000000000011010010011 6"
b1000000000011010010011 ["
b100010 ,
b100010 i
b100010 P"
b100000 A
b100000 k
b100000 7"
b101000 *
b101000 g
b101000 O"
b100100 )
b100100 h
b100100 4"
b100100 9"
b100100 S"
b1001 #
1!
#450
0!
#475
b111100 5
b111100 x
b111100 +"
b111100 X"
b10 ]
b10 m
b10 $"
0\
b10 Y
b10 b
b10 q
b0 [
b0 `
b0 D"
b111110 ;
b111110 r
b111110 J"
b111110 L"
b0 4
b0 w
b0 *"
b0 W"
b1100000010101000100011 -
b1100000010101000100011 5"
b1100000010101000100011 8"
b101100 +
b101100 Q"
b101100 R"
b0 .
b0 j
b0 )"
b0 \"
b1101 ""
b11110 !"
b1111 %"
b1101 '"
b11110 &"
b1 ("
b1101 V"
b11110 U"
b110011 l
b10 ^
b10 a
b10 e
b10 Z
b10 _
b10 N"
b1 /
b1 ~
b1 H"
b0 0
b0 }
b0 B"
b111110 1
b111110 E"
b111110 K"
b111110 Y"
b111110 _"
b101100 *
b101100 g
b101100 O"
b101000 )
b101000 h
b101000 4"
b101000 9"
b101000 S"
b110111110001011110110011 B
b110111110001011110110011 6"
b110111110001011110110011 ["
b100100 ,
b100100 i
b100100 P"
b100100 A
b100100 k
b100100 7"
b1101 K
b1101 s
b1101 #"
b1101 -"
b0 J
b0 |
b0 /"
b0 E
b0 c
b0 2"
b10 D
b10 3"
b10 M"
b11 S
b11 u
b11 y
b11 ;"
b111110 Q
b111110 o
b111110 v
b1111 W
b1111 p
b1111 t
b1111 :"
b1111 A"
b1111 G"
b10 >
b10 z
b10 >"
b10 T"
b111110 @
b111110 ="
b111110 ]"
b1010 #
1!
#500
0!
#525
b10 ;
b10 r
b10 J"
b10 L"
b1111 4
b1111 w
b1111 *"
b1111 W"
b111100 [
b111100 `
b111100 D"
b11110000 Y
b11110000 b
b11110000 q
b0 5
b0 x
b0 +"
b0 X"
b0 ]
b0 m
b0 $"
19
02
1\
b1111 1
b1111 E"
b1111 K"
b1111 Y"
b1111 _"
b10 /
b10 ~
b10 H"
b10 Z
b10 _
b10 N"
b11 ^
b11 a
b11 e
b10100 .
b10100 j
b10100 )"
b10100 \"
b11 ""
b0 !"
b10100 %"
b11 '"
b0 &"
b10 ("
b11 V"
b0 U"
b100011 l
b10101000000011 -
b10101000000011 5"
b10101000000011 8"
b110000 +
b110000 Q"
b110000 R"
b11 >
b11 z
b11 >"
b11 T"
b1111 @
b1111 ="
b1111 ]"
b1101 S
b1101 u
b1101 y
b1101 ;"
b10 W
b10 p
b10 t
b10 :"
b10 A"
b10 G"
b1111 K
b1111 s
b1111 #"
b1111 -"
b1101 H
b1101 {
b1101 1"
b11110 J
b11110 |
b11110 /"
b1 E
b1 c
b1 2"
b0 D
b0 3"
b0 M"
b111100 I
b111100 ."
b111100 @"
0O
b10 P
b10 d
b10 ,"
b1100000010101000100011 B
b1100000010101000100011 6"
b1100000010101000100011 ["
b111100 ,
b111100 i
b111100 P"
b101000 A
b101000 k
b101000 7"
b110000 *
b110000 g
b110000 O"
b101100 )
b101100 h
b101100 4"
b101100 9"
b101100 S"
b1011 #
1!
#550
0!
#575
09
1:
12
18
b0 [
b0 `
b0 D"
b10100 Y
b10100 b
b10100 q
b1111 ;
b1111 r
b1111 J"
b1111 L"
b0 4
b0 w
b0 *"
b0 W"
b10000000010101010000011 -
b10000000010101010000011 5"
b10000000010101010000011 8"
b110100 +
b110100 Q"
b110100 R"
b0 .
b0 j
b0 )"
b0 \"
b0 ""
b0 '"
b0 V"
b11 l
b10100 Z
b10100 _
b10100 N"
b10 ^
b10 a
b10 e
b0 /
b0 ~
b0 H"
b10 1
b10 E"
b10 K"
b10 Y"
b10 _"
b110100 *
b110100 g
b110100 O"
b110000 )
b110000 h
b110000 4"
b110000 9"
b110000 S"
b10101000000011 B
b10101000000011 6"
b10101000000011 ["
b101100 ,
b101100 i
b101100 P"
b101100 A
b101100 k
b101100 7"
b10100 K
b10100 s
b10100 #"
b10100 -"
b11 H
b11 {
b11 1"
b0 J
b0 |
b0 /"
b10 E
b10 c
b10 2"
b10100 D
b10100 3"
b10100 M"
b1111 G
b1111 0"
b1111 F"
b0 I
b0 ."
b0 @"
1O
b0 P
b0 d
b0 ,"
1M
0F
b1111 S
b1111 u
b1111 y
b1111 ;"
b10 Q
b10 o
b10 v
b11110000 W
b11110000 p
b11110000 t
b11110000 :"
b11110000 A"
b11110000 G"
b1101 >
b1101 z
b1101 >"
b1101 T"
b10 @
b10 ="
b10 ]"
b1100 #
1!
#600
0!
